^C:\USERS\E-TRAINING1\DOWNLOADS\HEALTHCHECKER_CLIENT2\HEALTHCHECKER_CLIENT\HEALTHCHECKER\PCH.CPP
C:\USERS\E-TRAINING1\DOWNLOADS\HEALTHCHECKER_CLIENT2\HEALTHCHECKER_CLIENT\HEALTHCHECKER\DEBUG\HEALTHCHECKER.PCH
C:\USERS\E-TRAINING1\DOWNLOADS\HEALTHCHECKER_CLIENT2\HEALTHCHECKER_CLIENT\HEALTHCHECKER\DEBUG\VC142.PDB
C:\USERS\E-TRAINING1\DOWNLOADS\HEALTHCHECKER_CLIENT2\HEALTHCHECKER_CLIENT\HEALTHCHECKER\DEBUG\VC142.IDB
C:\USERS\E-TRAINING1\DOWNLOADS\HEALTHCHECKER_CLIENT2\HEALTHCHECKER_CLIENT\HEALTHCHECKER\DEBUG\PCH.OBJ
^C:\USERS\E-TRAINING1\DOWNLOADS\HEALTHCHECKER_CLIENT2\HEALTHCHECKER_CLIENT\HEALTHCHECKER\HEALTHCHECKER.CPP|C:\USERS\E-TRAINING1\DOWNLOADS\HEALTHCHECKER_CLIENT2\HEALTHCHECKER_CLIENT\HEALTHCHECKER\HEALTHCHECKERDLG.CPP|C:\USERS\E-TRAINING1\DOWNLOADS\HEALTHCHECKER_CLIENT2\HEALTHCHECKER_CLIENT\HEALTHCHECKER\MAIN.CPP|C:\USERS\E-TRAINING1\DOWNLOADS\HEALTHCHECKER_CLIENT2\HEALTHCHECKER_CLIENT\HEALTHCHECKER\RESERVE.CPP|C:\USERS\E-TRAINING1\DOWNLOADS\HEALTHCHECKER_CLIENT2\HEALTHCHECKER_CLIENT\HEALTHCHECKER\STDAFX.CPP
C:\USERS\E-TRAINING1\DOWNLOADS\HEALTHCHECKER_CLIENT2\HEALTHCHECKER_CLIENT\HEALTHCHECKER\DEBUG\VC142.PDB
C:\USERS\E-TRAINING1\DOWNLOADS\HEALTHCHECKER_CLIENT2\HEALTHCHECKER_CLIENT\HEALTHCHECKER\DEBUG\VC142.IDB
C:\USERS\E-TRAINING1\DOWNLOADS\HEALTHCHECKER_CLIENT2\HEALTHCHECKER_CLIENT\HEALTHCHECKER\DEBUG\STDAFX.OBJ
C:\USERS\E-TRAINING1\DOWNLOADS\HEALTHCHECKER_CLIENT2\HEALTHCHECKER_CLIENT\HEALTHCHECKER\DEBUG\RESERVE.OBJ
C:\USERS\E-TRAINING1\DOWNLOADS\HEALTHCHECKER_CLIENT2\HEALTHCHECKER_CLIENT\HEALTHCHECKER\DEBUG\MAIN.OBJ
C:\USERS\E-TRAINING1\DOWNLOADS\HEALTHCHECKER_CLIENT2\HEALTHCHECKER_CLIENT\HEALTHCHECKER\DEBUG\HEALTHCHECKERDLG.OBJ
C:\USERS\E-TRAINING1\DOWNLOADS\HEALTHCHECKER_CLIENT2\HEALTHCHECKER_CLIENT\HEALTHCHECKER\DEBUG\HEALTHCHECKER.OBJ
^C:\USERS\E-TRAINING1\DOWNLOADS\HEALTHCHECKER_CLIENT2\HEALTHCHECKER_CLIENT\HEALTHCHECKER\HEALTHCHECKER.CPP
C:\USERS\E-TRAINING1\DOWNLOADS\HEALTHCHECKER_CLIENT2\HEALTHCHECKER_CLIENT\HEALTHCHECKER\DEBUG\VC142.PDB
^C:\USERS\E-TRAINING1\DOWNLOADS\HEALTHCHECKER_CLIENT2\HEALTHCHECKER_CLIENT\HEALTHCHECKER\HEALTHCHECKERDLG.CPP
C:\USERS\E-TRAINING1\DOWNLOADS\HEALTHCHECKER_CLIENT2\HEALTHCHECKER_CLIENT\HEALTHCHECKER\DEBUG\VC142.PDB
^C:\USERS\E-TRAINING1\DOWNLOADS\HEALTHCHECKER_CLIENT2\HEALTHCHECKER_CLIENT\HEALTHCHECKER\MAIN.CPP
C:\USERS\E-TRAINING1\DOWNLOADS\HEALTHCHECKER_CLIENT2\HEALTHCHECKER_CLIENT\HEALTHCHECKER\DEBUG\VC142.PDB
^C:\USERS\E-TRAINING1\DOWNLOADS\HEALTHCHECKER_CLIENT2\HEALTHCHECKER_CLIENT\HEALTHCHECKER\RESERVE.CPP
C:\USERS\E-TRAINING1\DOWNLOADS\HEALTHCHECKER_CLIENT2\HEALTHCHECKER_CLIENT\HEALTHCHECKER\DEBUG\VC142.PDB
^C:\USERS\E-TRAINING1\DOWNLOADS\HEALTHCHECKER_CLIENT2\HEALTHCHECKER_CLIENT\HEALTHCHECKER\STDAFX.CPP
C:\USERS\E-TRAINING1\DOWNLOADS\HEALTHCHECKER_CLIENT2\HEALTHCHECKER_CLIENT\HEALTHCHECKER\DEBUG\VC142.PDB
