^C:\USERS\E-TRAINING1\DOWNLOADS\HEALTHCHECKER_CLIENT2\HEALTHCHECKER_CLIENT\HEALTHCHECKER\HEALTHCHECKER.RC
C:\USERS\E-TRAINING1\DOWNLOADS\HEALTHCHECKER_CLIENT2\HEALTHCHECKER_CLIENT\HEALTHCHECKER\RESOURCE.H
C:\USERS\E-TRAINING1\DOWNLOADS\HEALTHCHECKER_CLIENT2\HEALTHCHECKER_CLIENT\HEALTHCHECKER\TARGETVER.H
C:\PROGRAM FILES (X86)\WINDOWS KITS\10\INCLUDE\10.0.18362.0\SHARED\SDKDDKVER.H
C:\PROGRAM FILES (X86)\MICROSOFT VISUAL STUDIO\2019\COMMUNITY\VC\TOOLS\MSVC\14.25.28610\ATLMFC\INCLUDE\AFXRES.H
C:\PROGRAM FILES (X86)\WINDOWS KITS\10\INCLUDE\10.0.18362.0\UM\WINRES.H
C:\PROGRAM FILES (X86)\WINDOWS KITS\10\INCLUDE\10.0.18362.0\UM\WINRESRC.H
C:\PROGRAM FILES (X86)\WINDOWS KITS\10\INCLUDE\10.0.18362.0\UM\WINUSER.RH
C:\PROGRAM FILES (X86)\WINDOWS KITS\10\INCLUDE\10.0.18362.0\SHARED\WINAPIFAMILY.H
C:\PROGRAM FILES (X86)\WINDOWS KITS\10\INCLUDE\10.0.18362.0\SHARED\WINPACKAGEFAMILY.H
C:\PROGRAM FILES (X86)\WINDOWS KITS\10\INCLUDE\10.0.18362.0\UM\COMMCTRL.RH
C:\PROGRAM FILES (X86)\WINDOWS KITS\10\INCLUDE\10.0.18362.0\UM\DDE.RH
C:\PROGRAM FILES (X86)\WINDOWS KITS\10\INCLUDE\10.0.18362.0\UM\WINNT.RH
C:\PROGRAM FILES (X86)\WINDOWS KITS\10\INCLUDE\10.0.18362.0\UM\DLGS.H
C:\PROGRAM FILES (X86)\WINDOWS KITS\10\INCLUDE\10.0.18362.0\UM\WINVER.H
C:\PROGRAM FILES (X86)\WINDOWS KITS\10\INCLUDE\10.0.18362.0\SHARED\SPECSTRINGS.H
C:\PROGRAM FILES (X86)\MICROSOFT VISUAL STUDIO\2019\COMMUNITY\VC\TOOLS\MSVC\14.25.28610\INCLUDE\SAL.H
C:\PROGRAM FILES (X86)\MICROSOFT VISUAL STUDIO\2019\COMMUNITY\VC\TOOLS\MSVC\14.25.28610\INCLUDE\CONCURRENCYSAL.H
C:\PROGRAM FILES (X86)\WINDOWS KITS\10\INCLUDE\10.0.18362.0\SHARED\DRIVERSPECS.H
C:\PROGRAM FILES (X86)\WINDOWS KITS\10\INCLUDE\10.0.18362.0\SHARED\SDV_DRIVERSPECS.H
C:\PROGRAM FILES (X86)\WINDOWS KITS\10\INCLUDE\10.0.18362.0\UM\VERRSRC.H
C:\USERS\E-TRAINING1\DOWNLOADS\HEALTHCHECKER_CLIENT2\HEALTHCHECKER_CLIENT\HEALTHCHECKER\RES\HEALTHCHECKER.RC2
C:\PROGRAM FILES (X86)\MICROSOFT VISUAL STUDIO\2019\COMMUNITY\VC\TOOLS\MSVC\14.25.28610\ATLMFC\INCLUDE\L.KOR\AFXRES.RC
C:\PROGRAM FILES (X86)\MICROSOFT VISUAL STUDIO\2019\COMMUNITY\VC\TOOLS\MSVC\14.25.28610\ATLMFC\INCLUDE\L.KOR\AFXRIBBON.RC
C:\PROGRAM FILES (X86)\MICROSOFT VISUAL STUDIO\2019\COMMUNITY\VC\TOOLS\MSVC\14.25.28610\ATLMFC\INCLUDE\AFXRIBBONRES.H
C:\PROGRAM FILES (X86)\MICROSOFT VISUAL STUDIO\2019\COMMUNITY\VC\TOOLS\MSVC\14.25.28610\ATLMFC\INCLUDE\RES\RIBBONSTYLE2007AQUA.RC2
C:\PROGRAM FILES (X86)\MICROSOFT VISUAL STUDIO\2019\COMMUNITY\VC\TOOLS\MSVC\14.25.28610\ATLMFC\INCLUDE\RES\RIBBONSTYLE2007BLACK.RC2
C:\PROGRAM FILES (X86)\MICROSOFT VISUAL STUDIO\2019\COMMUNITY\VC\TOOLS\MSVC\14.25.28610\ATLMFC\INCLUDE\RES\RIBBONSTYLE2007BLUE.RC2
C:\PROGRAM FILES (X86)\MICROSOFT VISUAL STUDIO\2019\COMMUNITY\VC\TOOLS\MSVC\14.25.28610\ATLMFC\INCLUDE\RES\RIBBONSTYLE2007SILVER.RC2
C:\PROGRAM FILES (X86)\MICROSOFT VISUAL STUDIO\2019\COMMUNITY\VC\TOOLS\MSVC\14.25.28610\ATLMFC\INCLUDE\RES\RIBBONSTYLEWINDOWS7.RC2
C:\USERS\E-TRAINING1\DOWNLOADS\HEALTHCHECKER_CLIENT2\HEALTHCHECKER_CLIENT\HEALTHCHECKER\RES\HEALTHCHECKER.ICO
C:\PROGRAM FILES (X86)\MICROSOFT VISUAL STUDIO\2019\COMMUNITY\VC\TOOLS\MSVC\14.25.28610\ATLMFC\INCLUDE\RES\HELP.CUR
C:\PROGRAM FILES (X86)\MICROSOFT VISUAL STUDIO\2019\COMMUNITY\VC\TOOLS\MSVC\14.25.28610\ATLMFC\INCLUDE\RES\IM_PANN.CUR
C:\PROGRAM FILES (X86)\MICROSOFT VISUAL STUDIO\2019\COMMUNITY\VC\TOOLS\MSVC\14.25.28610\ATLMFC\INCLUDE\RES\IM_PANS.CUR
C:\PROGRAM FILES (X86)\MICROSOFT VISUAL STUDIO\2019\COMMUNITY\VC\TOOLS\MSVC\14.25.28610\ATLMFC\INCLUDE\RES\IM_PANE.CUR
C:\PROGRAM FILES (X86)\MICROSOFT VISUAL STUDIO\2019\COMMUNITY\VC\TOOLS\MSVC\14.25.28610\ATLMFC\INCLUDE\RES\IM_PANW.CUR
C:\PROGRAM FILES (X86)\MICROSOFT VISUAL STUDIO\2019\COMMUNITY\VC\TOOLS\MSVC\14.25.28610\ATLMFC\INCLUDE\RES\IM_PANNE.CUR
C:\PROGRAM FILES (X86)\MICROSOFT VISUAL STUDIO\2019\COMMUNITY\VC\TOOLS\MSVC\14.25.28610\ATLMFC\INCLUDE\RES\IM_PANNW.CUR
C:\PROGRAM FILES (X86)\MICROSOFT VISUAL STUDIO\2019\COMMUNITY\VC\TOOLS\MSVC\14.25.28610\ATLMFC\INCLUDE\RES\IM_PANSE.CUR
C:\PROGRAM FILES (X86)\MICROSOFT VISUAL STUDIO\2019\COMMUNITY\VC\TOOLS\MSVC\14.25.28610\ATLMFC\INCLUDE\RES\IM_PANSW.CUR
C:\PROGRAM FILES (X86)\MICROSOFT VISUAL STUDIO\2019\COMMUNITY\VC\TOOLS\MSVC\14.25.28610\ATLMFC\INCLUDE\RES\IM_PANH.CUR
C:\PROGRAM FILES (X86)\MICROSOFT VISUAL STUDIO\2019\COMMUNITY\VC\TOOLS\MSVC\14.25.28610\ATLMFC\INCLUDE\RES\IM_PANV.CUR
C:\PROGRAM FILES (X86)\MICROSOFT VISUAL STUDIO\2019\COMMUNITY\VC\TOOLS\MSVC\14.25.28610\ATLMFC\INCLUDE\RES\IM_PANHV.CUR
C:\PROGRAM FILES (X86)\MICROSOFT VISUAL STUDIO\2019\COMMUNITY\VC\TOOLS\MSVC\14.25.28610\ATLMFC\INCLUDE\RES\IM_ORGH.CUR
C:\PROGRAM FILES (X86)\MICROSOFT VISUAL STUDIO\2019\COMMUNITY\VC\TOOLS\MSVC\14.25.28610\ATLMFC\INCLUDE\RES\IM_ORGV.CUR
C:\PROGRAM FILES (X86)\MICROSOFT VISUAL STUDIO\2019\COMMUNITY\VC\TOOLS\MSVC\14.25.28610\ATLMFC\INCLUDE\RES\IM_ORGHV.CUR
C:\PROGRAM FILES (X86)\MICROSOFT VISUAL STUDIO\2019\COMMUNITY\VC\TOOLS\MSVC\14.25.28610\ATLMFC\INCLUDE\RES\MINIFWND.BMP
C:\PROGRAM FILES (X86)\MICROSOFT VISUAL STUDIO\2019\COMMUNITY\VC\TOOLS\MSVC\14.25.28610\ATLMFC\INCLUDE\RES\95CHECK.BMP
C:\PROGRAM FILES (X86)\MICROSOFT VISUAL STUDIO\2019\COMMUNITY\VC\TOOLS\MSVC\14.25.28610\ATLMFC\INCLUDE\AQUA\STYLE.XML
C:\PROGRAM FILES (X86)\MICROSOFT VISUAL STUDIO\2019\COMMUNITY\VC\TOOLS\MSVC\14.25.28610\ATLMFC\INCLUDE\AQUA\MAINWND\BORDER.PNG
C:\PROGRAM FILES (X86)\MICROSOFT VISUAL STUDIO\2019\COMMUNITY\VC\TOOLS\MSVC\14.25.28610\ATLMFC\INCLUDE\AQUA\MAINWND\BORDERMDICHILD.PNG
C:\PROGRAM FILES (X86)\MICROSOFT VISUAL STUDIO\2019\COMMUNITY\VC\TOOLS\MSVC\14.25.28610\ATLMFC\INCLUDE\AQUA\MAINWND\BORDERCAPTION.PNG
C:\PROGRAM FILES (X86)\MICROSOFT VISUAL STUDIO\2019\COMMUNITY\VC\TOOLS\MSVC\14.25.28610\ATLMFC\INCLUDE\AQUA\STATUSBAR\BACK.PNG
C:\PROGRAM FILES (X86)\MICROSOFT VISUAL STUDIO\2019\COMMUNITY\VC\TOOLS\MSVC\14.25.28610\ATLMFC\INCLUDE\AQUA\STATUSBAR\BACK_EXT.PNG
C:\PROGRAM FILES (X86)\MICROSOFT VISUAL STUDIO\2019\COMMUNITY\VC\TOOLS\MSVC\14.25.28610\ATLMFC\INCLUDE\AQUA\STATUSBAR\SIZEGRIP.PNG
C:\PROGRAM FILES (X86)\MICROSOFT VISUAL STUDIO\2019\COMMUNITY\VC\TOOLS\MSVC\14.25.28610\ATLMFC\INCLUDE\AQUA\STATUSBAR\PANEBORDER.PNG
C:\PROGRAM FILES (X86)\MICROSOFT VISUAL STUDIO\2019\COMMUNITY\VC\TOOLS\MSVC\14.25.28610\ATLMFC\INCLUDE\AQUA\APPCAPTION\SYSBTN_BACK.PNG
C:\PROGRAM FILES (X86)\MICROSOFT VISUAL STUDIO\2019\COMMUNITY\VC\TOOLS\MSVC\14.25.28610\ATLMFC\INCLUDE\AQUA\APPCAPTION\SYSBTN_CLOSE.PNG
C:\PROGRAM FILES (X86)\MICROSOFT VISUAL STUDIO\2019\COMMUNITY\VC\TOOLS\MSVC\14.25.28610\ATLMFC\INCLUDE\AQUA\APPCAPTION\SYSBTN_CLOSE_S.PNG
C:\PROGRAM FILES (X86)\MICROSOFT VISUAL STUDIO\2019\COMMUNITY\VC\TOOLS\MSVC\14.25.28610\ATLMFC\INCLUDE\AQUA\APPCAPTION\SYSBTN_MINIMIZE.PNG
C:\PROGRAM FILES (X86)\MICROSOFT VISUAL STUDIO\2019\COMMUNITY\VC\TOOLS\MSVC\14.25.28610\ATLMFC\INCLUDE\AQUA\APPCAPTION\SYSBTN_MINIMIZE_S.PNG
C:\PROGRAM FILES (X86)\MICROSOFT VISUAL STUDIO\2019\COMMUNITY\VC\TOOLS\MSVC\14.25.28610\ATLMFC\INCLUDE\AQUA\APPCAPTION\SYSBTN_MAXIMIZE.PNG
C:\PROGRAM FILES (X86)\MICROSOFT VISUAL STUDIO\2019\COMMUNITY\VC\TOOLS\MSVC\14.25.28610\ATLMFC\INCLUDE\AQUA\APPCAPTION\SYSBTN_MAXIMIZE_S.PNG
C:\PROGRAM FILES (X86)\MICROSOFT VISUAL STUDIO\2019\COMMUNITY\VC\TOOLS\MSVC\14.25.28610\ATLMFC\INCLUDE\AQUA\APPCAPTION\SYSBTN_RESTORE.PNG
C:\PROGRAM FILES (X86)\MICROSOFT VISUAL STUDIO\2019\COMMUNITY\VC\TOOLS\MSVC\14.25.28610\ATLMFC\INCLUDE\AQUA\APPCAPTION\SYSBTN_RESTORE_S.PNG
C:\PROGRAM FILES (X86)\MICROSOFT VISUAL STUDIO\2019\COMMUNITY\VC\TOOLS\MSVC\14.25.28610\ATLMFC\INCLUDE\AQUA\POPUPBAR\ITEM_MARKER_C.PNG
C:\PROGRAM FILES (X86)\MICROSOFT VISUAL STUDIO\2019\COMMUNITY\VC\TOOLS\MSVC\14.25.28610\ATLMFC\INCLUDE\AQUA\POPUPBAR\MENUHIGHLIGHT.PNG
C:\PROGRAM FILES (X86)\MICROSOFT VISUAL STUDIO\2019\COMMUNITY\VC\TOOLS\MSVC\14.25.28610\ATLMFC\INCLUDE\AQUA\POPUPBAR\MENUHIGHLIGHTDISABLED.PNG
C:\PROGRAM FILES (X86)\MICROSOFT VISUAL STUDIO\2019\COMMUNITY\VC\TOOLS\MSVC\14.25.28610\ATLMFC\INCLUDE\AQUA\POPUPBAR\MENUSCROLLBTN.PNG
C:\PROGRAM FILES (X86)\MICROSOFT VISUAL STUDIO\2019\COMMUNITY\VC\TOOLS\MSVC\14.25.28610\ATLMFC\INCLUDE\AQUA\POPUPBAR\ITEM_BACK.PNG
C:\PROGRAM FILES (X86)\MICROSOFT VISUAL STUDIO\2019\COMMUNITY\VC\TOOLS\MSVC\14.25.28610\ATLMFC\INCLUDE\AQUA\TOOLBAR\BTN.PNG
C:\PROGRAM FILES (X86)\MICROSOFT VISUAL STUDIO\2019\COMMUNITY\VC\TOOLS\MSVC\14.25.28610\ATLMFC\INCLUDE\AQUA\TOOLBAR\BORDER.PNG
C:\PROGRAM FILES (X86)\MICROSOFT VISUAL STUDIO\2019\COMMUNITY\VC\TOOLS\MSVC\14.25.28610\ATLMFC\INCLUDE\AQUA\MENUBAR\BTN.PNG
C:\PROGRAM FILES (X86)\MICROSOFT VISUAL STUDIO\2019\COMMUNITY\VC\TOOLS\MSVC\14.25.28610\ATLMFC\INCLUDE\AQUA\POPUPBAR\BORDER.PNG
C:\PROGRAM FILES (X86)\MICROSOFT VISUAL STUDIO\2019\COMMUNITY\VC\TOOLS\MSVC\14.25.28610\ATLMFC\INCLUDE\AQUA\POPUPBAR\RESIZEBAR.PNG
C:\PROGRAM FILES (X86)\MICROSOFT VISUAL STUDIO\2019\COMMUNITY\VC\TOOLS\MSVC\14.25.28610\ATLMFC\INCLUDE\AQUA\POPUPBAR\RESIZEBAR_HV.PNG
C:\PROGRAM FILES (X86)\MICROSOFT VISUAL STUDIO\2019\COMMUNITY\VC\TOOLS\MSVC\14.25.28610\ATLMFC\INCLUDE\AQUA\POPUPBAR\RESIZEBAR_HVT.PNG
C:\PROGRAM FILES (X86)\MICROSOFT VISUAL STUDIO\2019\COMMUNITY\VC\TOOLS\MSVC\14.25.28610\ATLMFC\INCLUDE\AQUA\POPUPBAR\RESIZEBAR_V.PNG
C:\PROGRAM FILES (X86)\MICROSOFT VISUAL STUDIO\2019\COMMUNITY\VC\TOOLS\MSVC\14.25.28610\ATLMFC\INCLUDE\AQUA\POPUPBAR\ITEM_MARKER_R.PNG
C:\PROGRAM FILES (X86)\MICROSOFT VISUAL STUDIO\2019\COMMUNITY\VC\TOOLS\MSVC\14.25.28610\ATLMFC\INCLUDE\AQUA\POPUPBAR\GRIPPER.PNG
C:\PROGRAM FILES (X86)\MICROSOFT VISUAL STUDIO\2019\COMMUNITY\VC\TOOLS\MSVC\14.25.28610\ATLMFC\INCLUDE\AQUA\POPUPBAR\TEAR.PNG
C:\PROGRAM FILES (X86)\MICROSOFT VISUAL STUDIO\2019\COMMUNITY\VC\TOOLS\MSVC\14.25.28610\ATLMFC\INCLUDE\AQUA\TASKPANE\SCROLLBTN.PNG
C:\PROGRAM FILES (X86)\MICROSOFT VISUAL STUDIO\2019\COMMUNITY\VC\TOOLS\MSVC\14.25.28610\ATLMFC\INCLUDE\AQUA\TAB\3D.PNG
C:\PROGRAM FILES (X86)\MICROSOFT VISUAL STUDIO\2019\COMMUNITY\VC\TOOLS\MSVC\14.25.28610\ATLMFC\INCLUDE\AQUA\TAB\FLAT.PNG
C:\PROGRAM FILES (X86)\MICROSOFT VISUAL STUDIO\2019\COMMUNITY\VC\TOOLS\MSVC\14.25.28610\ATLMFC\INCLUDE\AQUA\RIBBON\CATEGORY_BACK.PNG
C:\PROGRAM FILES (X86)\MICROSOFT VISUAL STUDIO\2019\COMMUNITY\VC\TOOLS\MSVC\14.25.28610\ATLMFC\INCLUDE\AQUA\RIBBON\CATEGORY_TAB.PNG
C:\PROGRAM FILES (X86)\MICROSOFT VISUAL STUDIO\2019\COMMUNITY\VC\TOOLS\MSVC\14.25.28610\ATLMFC\INCLUDE\AQUA\RIBBON\PANEL_BACK_T.PNG
C:\PROGRAM FILES (X86)\MICROSOFT VISUAL STUDIO\2019\COMMUNITY\VC\TOOLS\MSVC\14.25.28610\ATLMFC\INCLUDE\AQUA\RIBBON\PANEL_BACK_B.PNG
C:\PROGRAM FILES (X86)\MICROSOFT VISUAL STUDIO\2019\COMMUNITY\VC\TOOLS\MSVC\14.25.28610\ATLMFC\INCLUDE\AQUA\RIBBON\BUTTONS\GROUP_F.PNG
C:\PROGRAM FILES (X86)\MICROSOFT VISUAL STUDIO\2019\COMMUNITY\VC\TOOLS\MSVC\14.25.28610\ATLMFC\INCLUDE\AQUA\RIBBON\BUTTONS\GROUP_M.PNG
C:\PROGRAM FILES (X86)\MICROSOFT VISUAL STUDIO\2019\COMMUNITY\VC\TOOLS\MSVC\14.25.28610\ATLMFC\INCLUDE\AQUA\RIBBON\BUTTONS\GROUP_L.PNG
C:\PROGRAM FILES (X86)\MICROSOFT VISUAL STUDIO\2019\COMMUNITY\VC\TOOLS\MSVC\14.25.28610\ATLMFC\INCLUDE\AQUA\RIBBON\BUTTONS\GROUP_S.PNG
C:\PROGRAM FILES (X86)\MICROSOFT VISUAL STUDIO\2019\COMMUNITY\VC\TOOLS\MSVC\14.25.28610\ATLMFC\INCLUDE\AQUA\RIBBON\BUTTONS\NORMAL_S.PNG
C:\PROGRAM FILES (X86)\MICROSOFT VISUAL STUDIO\2019\COMMUNITY\VC\TOOLS\MSVC\14.25.28610\ATLMFC\INCLUDE\AQUA\RIBBON\BUTTONS\NORMAL_B.PNG
C:\PROGRAM FILES (X86)\MICROSOFT VISUAL STUDIO\2019\COMMUNITY\VC\TOOLS\MSVC\14.25.28610\ATLMFC\INCLUDE\AQUA\RIBBON\BUTTONS\LAUNCH_ICON.PNG
C:\PROGRAM FILES (X86)\MICROSOFT VISUAL STUDIO\2019\COMMUNITY\VC\TOOLS\MSVC\14.25.28610\ATLMFC\INCLUDE\AQUA\RIBBON\BUTTONS\MAIN.PNG
C:\PROGRAM FILES (X86)\MICROSOFT VISUAL STUDIO\2019\COMMUNITY\VC\TOOLS\MSVC\14.25.28610\ATLMFC\INCLUDE\AQUA\RIBBON\BUTTONS\DEFAULT.PNG
C:\PROGRAM FILES (X86)\MICROSOFT VISUAL STUDIO\2019\COMMUNITY\VC\TOOLS\MSVC\14.25.28610\ATLMFC\INCLUDE\AQUA\RIBBON\BUTTONS\DEFAULT_IMAGE.PNG
C:\PROGRAM FILES (X86)\MICROSOFT VISUAL STUDIO\2019\COMMUNITY\VC\TOOLS\MSVC\14.25.28610\ATLMFC\INCLUDE\AQUA\RIBBON\CAPTION_QA.PNG
C:\PROGRAM FILES (X86)\MICROSOFT VISUAL STUDIO\2019\COMMUNITY\VC\TOOLS\MSVC\14.25.28610\ATLMFC\INCLUDE\AQUA\RIBBON\CAPTION_QA_GLASS.PNG
C:\PROGRAM FILES (X86)\MICROSOFT VISUAL STUDIO\2019\COMMUNITY\VC\TOOLS\MSVC\14.25.28610\ATLMFC\INCLUDE\AQUA\RIBBON\BUTTONS\MENU_H_C.PNG
C:\PROGRAM FILES (X86)\MICROSOFT VISUAL STUDIO\2019\COMMUNITY\VC\TOOLS\MSVC\14.25.28610\ATLMFC\INCLUDE\AQUA\RIBBON\BUTTONS\MENU_H_M.PNG
C:\PROGRAM FILES (X86)\MICROSOFT VISUAL STUDIO\2019\COMMUNITY\VC\TOOLS\MSVC\14.25.28610\ATLMFC\INCLUDE\AQUA\RIBBON\BUTTONS\MENU_V_C.PNG
C:\PROGRAM FILES (X86)\MICROSOFT VISUAL STUDIO\2019\COMMUNITY\VC\TOOLS\MSVC\14.25.28610\ATLMFC\INCLUDE\AQUA\RIBBON\BUTTONS\MENU_V_M.PNG
C:\PROGRAM FILES (X86)\MICROSOFT VISUAL STUDIO\2019\COMMUNITY\VC\TOOLS\MSVC\14.25.28610\ATLMFC\INCLUDE\AQUA\RIBBON\BUTTONS\GROUPMENU_F_C.PNG
C:\PROGRAM FILES (X86)\MICROSOFT VISUAL STUDIO\2019\COMMUNITY\VC\TOOLS\MSVC\14.25.28610\ATLMFC\INCLUDE\AQUA\RIBBON\BUTTONS\GROUPMENU_F_M.PNG
C:\PROGRAM FILES (X86)\MICROSOFT VISUAL STUDIO\2019\COMMUNITY\VC\TOOLS\MSVC\14.25.28610\ATLMFC\INCLUDE\AQUA\RIBBON\BUTTONS\GROUPMENU_M_C.PNG
C:\PROGRAM FILES (X86)\MICROSOFT VISUAL STUDIO\2019\COMMUNITY\VC\TOOLS\MSVC\14.25.28610\ATLMFC\INCLUDE\AQUA\RIBBON\BUTTONS\GROUPMENU_M_M.PNG
C:\PROGRAM FILES (X86)\MICROSOFT VISUAL STUDIO\2019\COMMUNITY\VC\TOOLS\MSVC\14.25.28610\ATLMFC\INCLUDE\AQUA\RIBBON\BUTTONS\GROUPMENU_L_C.PNG
C:\PROGRAM FILES (X86)\MICROSOFT VISUAL STUDIO\2019\COMMUNITY\VC\TOOLS\MSVC\14.25.28610\ATLMFC\INCLUDE\AQUA\RIBBON\BUTTONS\GROUPMENU_L_M.PNG
C:\PROGRAM FILES (X86)\MICROSOFT VISUAL STUDIO\2019\COMMUNITY\VC\TOOLS\MSVC\14.25.28610\ATLMFC\INCLUDE\AQUA\RIBBON\BUTTONS\CHECK.PNG
C:\PROGRAM FILES (X86)\MICROSOFT VISUAL STUDIO\2019\COMMUNITY\VC\TOOLS\MSVC\14.25.28610\ATLMFC\INCLUDE\AQUA\RIBBON\SEPARATOR.PNG
C:\PROGRAM FILES (X86)\MICROSOFT VISUAL STUDIO\2019\COMMUNITY\VC\TOOLS\MSVC\14.25.28610\ATLMFC\INCLUDE\AQUA\RIBBON\BUTTONS\MAIN_PANEL.PNG
C:\PROGRAM FILES (X86)\MICROSOFT VISUAL STUDIO\2019\COMMUNITY\VC\TOOLS\MSVC\14.25.28610\ATLMFC\INCLUDE\AQUA\RIBBON\BUTTONS\DEFAULT_QAT_ICON.PNG
C:\PROGRAM FILES (X86)\MICROSOFT VISUAL STUDIO\2019\COMMUNITY\VC\TOOLS\MSVC\14.25.28610\ATLMFC\INCLUDE\AQUA\RIBBON\BUTTONS\PALETTE_T.PNG
C:\PROGRAM FILES (X86)\MICROSOFT VISUAL STUDIO\2019\COMMUNITY\VC\TOOLS\MSVC\14.25.28610\ATLMFC\INCLUDE\AQUA\RIBBON\BUTTONS\PALETTE_M.PNG
C:\PROGRAM FILES (X86)\MICROSOFT VISUAL STUDIO\2019\COMMUNITY\VC\TOOLS\MSVC\14.25.28610\ATLMFC\INCLUDE\AQUA\RIBBON\BUTTONS\PALETTE_B.PNG
C:\PROGRAM FILES (X86)\MICROSOFT VISUAL STUDIO\2019\COMMUNITY\VC\TOOLS\MSVC\14.25.28610\ATLMFC\INCLUDE\AQUA\RIBBON\BUTTONS\STATUSPANE.PNG
C:\PROGRAM FILES (X86)\MICROSOFT VISUAL STUDIO\2019\COMMUNITY\VC\TOOLS\MSVC\14.25.28610\ATLMFC\INCLUDE\AQUA\RIBBON\SLIDER\THUMB.PNG
C:\PROGRAM FILES (X86)\MICROSOFT VISUAL STUDIO\2019\COMMUNITY\VC\TOOLS\MSVC\14.25.28610\ATLMFC\INCLUDE\AQUA\RIBBON\SLIDER\PLUS.PNG
C:\PROGRAM FILES (X86)\MICROSOFT VISUAL STUDIO\2019\COMMUNITY\VC\TOOLS\MSVC\14.25.28610\ATLMFC\INCLUDE\AQUA\RIBBON\SLIDER\MINUS.PNG
C:\PROGRAM FILES (X86)\MICROSOFT VISUAL STUDIO\2019\COMMUNITY\VC\TOOLS\MSVC\14.25.28610\ATLMFC\INCLUDE\AQUA\RIBBON\PROGRESS\BACK.PNG
C:\PROGRAM FILES (X86)\MICROSOFT VISUAL STUDIO\2019\COMMUNITY\VC\TOOLS\MSVC\14.25.28610\ATLMFC\INCLUDE\AQUA\RIBBON\PROGRESS\NORMAL.PNG
C:\PROGRAM FILES (X86)\MICROSOFT VISUAL STUDIO\2019\COMMUNITY\VC\TOOLS\MSVC\14.25.28610\ATLMFC\INCLUDE\AQUA\RIBBON\PROGRESS\NORMAL_EXT.PNG
C:\PROGRAM FILES (X86)\MICROSOFT VISUAL STUDIO\2019\COMMUNITY\VC\TOOLS\MSVC\14.25.28610\ATLMFC\INCLUDE\AQUA\RIBBON\PROGRESS\INFINITY.PNG
C:\PROGRAM FILES (X86)\MICROSOFT VISUAL STUDIO\2019\COMMUNITY\VC\TOOLS\MSVC\14.25.28610\ATLMFC\INCLUDE\AQUA\RIBBON\BUTTONS\DEFAULT_QAT.PNG
C:\PROGRAM FILES (X86)\MICROSOFT VISUAL STUDIO\2019\COMMUNITY\VC\TOOLS\MSVC\14.25.28610\ATLMFC\INCLUDE\AQUA\RIBBON\BORDER_FLOATY.PNG
C:\PROGRAM FILES (X86)\MICROSOFT VISUAL STUDIO\2019\COMMUNITY\VC\TOOLS\MSVC\14.25.28610\ATLMFC\INCLUDE\AQUA\RIBBON\KEYTIP.PNG
C:\PROGRAM FILES (X86)\MICROSOFT VISUAL STUDIO\2019\COMMUNITY\VC\TOOLS\MSVC\14.25.28610\ATLMFC\INCLUDE\AQUA\RIBBON\BUTTONS\PAGE_L.PNG
C:\PROGRAM FILES (X86)\MICROSOFT VISUAL STUDIO\2019\COMMUNITY\VC\TOOLS\MSVC\14.25.28610\ATLMFC\INCLUDE\AQUA\RIBBON\BUTTONS\PAGE_R.PNG
C:\PROGRAM FILES (X86)\MICROSOFT VISUAL STUDIO\2019\COMMUNITY\VC\TOOLS\MSVC\14.25.28610\ATLMFC\INCLUDE\AQUA\RIBBON\CATEGORY_CONTEXT\PANEL_BACK_B.PNG
C:\PROGRAM FILES (X86)\MICROSOFT VISUAL STUDIO\2019\COMMUNITY\VC\TOOLS\MSVC\14.25.28610\ATLMFC\INCLUDE\AQUA\RIBBON\CATEGORY_CONTEXT\PANEL_BACK_T.PNG
C:\PROGRAM FILES (X86)\MICROSOFT VISUAL STUDIO\2019\COMMUNITY\VC\TOOLS\MSVC\14.25.28610\ATLMFC\INCLUDE\AQUA\RIBBON\CATEGORY_CONTEXT\SEPARATOR.PNG
C:\PROGRAM FILES (X86)\MICROSOFT VISUAL STUDIO\2019\COMMUNITY\VC\TOOLS\MSVC\14.25.28610\ATLMFC\INCLUDE\AQUA\RIBBON\CATEGORY_CONTEXT\RED\DEFAULT.PNG
C:\PROGRAM FILES (X86)\MICROSOFT VISUAL STUDIO\2019\COMMUNITY\VC\TOOLS\MSVC\14.25.28610\ATLMFC\INCLUDE\AQUA\RIBBON\CATEGORY_CONTEXT\RED\TAB.PNG
C:\PROGRAM FILES (X86)\MICROSOFT VISUAL STUDIO\2019\COMMUNITY\VC\TOOLS\MSVC\14.25.28610\ATLMFC\INCLUDE\AQUA\RIBBON\CATEGORY_CONTEXT\RED\CAPTION.PNG
C:\PROGRAM FILES (X86)\MICROSOFT VISUAL STUDIO\2019\COMMUNITY\VC\TOOLS\MSVC\14.25.28610\ATLMFC\INCLUDE\AQUA\RIBBON\CATEGORY_CONTEXT\RED\BACK.PNG
C:\PROGRAM FILES (X86)\MICROSOFT VISUAL STUDIO\2019\COMMUNITY\VC\TOOLS\MSVC\14.25.28610\ATLMFC\INCLUDE\AQUA\RIBBON\CATEGORY_CONTEXT\ORANGE\DEFAULT.PNG
C:\PROGRAM FILES (X86)\MICROSOFT VISUAL STUDIO\2019\COMMUNITY\VC\TOOLS\MSVC\14.25.28610\ATLMFC\INCLUDE\AQUA\RIBBON\CATEGORY_CONTEXT\ORANGE\TAB.PNG
C:\PROGRAM FILES (X86)\MICROSOFT VISUAL STUDIO\2019\COMMUNITY\VC\TOOLS\MSVC\14.25.28610\ATLMFC\INCLUDE\AQUA\RIBBON\CATEGORY_CONTEXT\ORANGE\CAPTION.PNG
C:\PROGRAM FILES (X86)\MICROSOFT VISUAL STUDIO\2019\COMMUNITY\VC\TOOLS\MSVC\14.25.28610\ATLMFC\INCLUDE\AQUA\RIBBON\CATEGORY_CONTEXT\ORANGE\BACK.PNG
C:\PROGRAM FILES (X86)\MICROSOFT VISUAL STUDIO\2019\COMMUNITY\VC\TOOLS\MSVC\14.25.28610\ATLMFC\INCLUDE\AQUA\RIBBON\CATEGORY_CONTEXT\YELLOW\DEFAULT.PNG
C:\PROGRAM FILES (X86)\MICROSOFT VISUAL STUDIO\2019\COMMUNITY\VC\TOOLS\MSVC\14.25.28610\ATLMFC\INCLUDE\AQUA\RIBBON\CATEGORY_CONTEXT\YELLOW\TAB.PNG
C:\PROGRAM FILES (X86)\MICROSOFT VISUAL STUDIO\2019\COMMUNITY\VC\TOOLS\MSVC\14.25.28610\ATLMFC\INCLUDE\AQUA\RIBBON\CATEGORY_CONTEXT\YELLOW\CAPTION.PNG
C:\PROGRAM FILES (X86)\MICROSOFT VISUAL STUDIO\2019\COMMUNITY\VC\TOOLS\MSVC\14.25.28610\ATLMFC\INCLUDE\AQUA\RIBBON\CATEGORY_CONTEXT\YELLOW\BACK.PNG
C:\PROGRAM FILES (X86)\MICROSOFT VISUAL STUDIO\2019\COMMUNITY\VC\TOOLS\MSVC\14.25.28610\ATLMFC\INCLUDE\AQUA\RIBBON\CATEGORY_CONTEXT\GREEN\DEFAULT.PNG
C:\PROGRAM FILES (X86)\MICROSOFT VISUAL STUDIO\2019\COMMUNITY\VC\TOOLS\MSVC\14.25.28610\ATLMFC\INCLUDE\AQUA\RIBBON\CATEGORY_CONTEXT\GREEN\TAB.PNG
C:\PROGRAM FILES (X86)\MICROSOFT VISUAL STUDIO\2019\COMMUNITY\VC\TOOLS\MSVC\14.25.28610\ATLMFC\INCLUDE\AQUA\RIBBON\CATEGORY_CONTEXT\GREEN\CAPTION.PNG
C:\PROGRAM FILES (X86)\MICROSOFT VISUAL STUDIO\2019\COMMUNITY\VC\TOOLS\MSVC\14.25.28610\ATLMFC\INCLUDE\AQUA\RIBBON\CATEGORY_CONTEXT\GREEN\BACK.PNG
C:\PROGRAM FILES (X86)\MICROSOFT VISUAL STUDIO\2019\COMMUNITY\VC\TOOLS\MSVC\14.25.28610\ATLMFC\INCLUDE\AQUA\RIBBON\CATEGORY_CONTEXT\BLUE\DEFAULT.PNG
C:\PROGRAM FILES (X86)\MICROSOFT VISUAL STUDIO\2019\COMMUNITY\VC\TOOLS\MSVC\14.25.28610\ATLMFC\INCLUDE\AQUA\RIBBON\CATEGORY_CONTEXT\BLUE\TAB.PNG
C:\PROGRAM FILES (X86)\MICROSOFT VISUAL STUDIO\2019\COMMUNITY\VC\TOOLS\MSVC\14.25.28610\ATLMFC\INCLUDE\AQUA\RIBBON\CATEGORY_CONTEXT\BLUE\CAPTION.PNG
C:\PROGRAM FILES (X86)\MICROSOFT VISUAL STUDIO\2019\COMMUNITY\VC\TOOLS\MSVC\14.25.28610\ATLMFC\INCLUDE\AQUA\RIBBON\CATEGORY_CONTEXT\BLUE\BACK.PNG
C:\PROGRAM FILES (X86)\MICROSOFT VISUAL STUDIO\2019\COMMUNITY\VC\TOOLS\MSVC\14.25.28610\ATLMFC\INCLUDE\AQUA\RIBBON\CATEGORY_CONTEXT\INDIGO\DEFAULT.PNG
C:\PROGRAM FILES (X86)\MICROSOFT VISUAL STUDIO\2019\COMMUNITY\VC\TOOLS\MSVC\14.25.28610\ATLMFC\INCLUDE\AQUA\RIBBON\CATEGORY_CONTEXT\INDIGO\TAB.PNG
C:\PROGRAM FILES (X86)\MICROSOFT VISUAL STUDIO\2019\COMMUNITY\VC\TOOLS\MSVC\14.25.28610\ATLMFC\INCLUDE\AQUA\RIBBON\CATEGORY_CONTEXT\INDIGO\CAPTION.PNG
C:\PROGRAM FILES (X86)\MICROSOFT VISUAL STUDIO\2019\COMMUNITY\VC\TOOLS\MSVC\14.25.28610\ATLMFC\INCLUDE\AQUA\RIBBON\CATEGORY_CONTEXT\INDIGO\BACK.PNG
C:\PROGRAM FILES (X86)\MICROSOFT VISUAL STUDIO\2019\COMMUNITY\VC\TOOLS\MSVC\14.25.28610\ATLMFC\INCLUDE\AQUA\RIBBON\CATEGORY_CONTEXT\VIOLET\DEFAULT.PNG
C:\PROGRAM FILES (X86)\MICROSOFT VISUAL STUDIO\2019\COMMUNITY\VC\TOOLS\MSVC\14.25.28610\ATLMFC\INCLUDE\AQUA\RIBBON\CATEGORY_CONTEXT\VIOLET\TAB.PNG
C:\PROGRAM FILES (X86)\MICROSOFT VISUAL STUDIO\2019\COMMUNITY\VC\TOOLS\MSVC\14.25.28610\ATLMFC\INCLUDE\AQUA\RIBBON\CATEGORY_CONTEXT\VIOLET\CAPTION.PNG
C:\PROGRAM FILES (X86)\MICROSOFT VISUAL STUDIO\2019\COMMUNITY\VC\TOOLS\MSVC\14.25.28610\ATLMFC\INCLUDE\AQUA\RIBBON\CATEGORY_CONTEXT\VIOLET\BACK.PNG
C:\PROGRAM FILES (X86)\MICROSOFT VISUAL STUDIO\2019\COMMUNITY\VC\TOOLS\MSVC\14.25.28610\ATLMFC\INCLUDE\BLACK\STYLE.XML
C:\PROGRAM FILES (X86)\MICROSOFT VISUAL STUDIO\2019\COMMUNITY\VC\TOOLS\MSVC\14.25.28610\ATLMFC\INCLUDE\BLACK\MAINWND\BORDER.PNG
C:\PROGRAM FILES (X86)\MICROSOFT VISUAL STUDIO\2019\COMMUNITY\VC\TOOLS\MSVC\14.25.28610\ATLMFC\INCLUDE\BLACK\MAINWND\BORDERMDICHILD.PNG
C:\PROGRAM FILES (X86)\MICROSOFT VISUAL STUDIO\2019\COMMUNITY\VC\TOOLS\MSVC\14.25.28610\ATLMFC\INCLUDE\BLACK\MAINWND\BORDERCAPTION.PNG
C:\PROGRAM FILES (X86)\MICROSOFT VISUAL STUDIO\2019\COMMUNITY\VC\TOOLS\MSVC\14.25.28610\ATLMFC\INCLUDE\BLACK\STATUSBAR\BACK.PNG
C:\PROGRAM FILES (X86)\MICROSOFT VISUAL STUDIO\2019\COMMUNITY\VC\TOOLS\MSVC\14.25.28610\ATLMFC\INCLUDE\BLACK\STATUSBAR\BACK_EXT.PNG
C:\PROGRAM FILES (X86)\MICROSOFT VISUAL STUDIO\2019\COMMUNITY\VC\TOOLS\MSVC\14.25.28610\ATLMFC\INCLUDE\BLACK\STATUSBAR\SIZEGRIP.PNG
C:\PROGRAM FILES (X86)\MICROSOFT VISUAL STUDIO\2019\COMMUNITY\VC\TOOLS\MSVC\14.25.28610\ATLMFC\INCLUDE\BLACK\STATUSBAR\PANEBORDER.PNG
C:\PROGRAM FILES (X86)\MICROSOFT VISUAL STUDIO\2019\COMMUNITY\VC\TOOLS\MSVC\14.25.28610\ATLMFC\INCLUDE\BLACK\APPCAPTION\SYSBTN_BACK.PNG
C:\PROGRAM FILES (X86)\MICROSOFT VISUAL STUDIO\2019\COMMUNITY\VC\TOOLS\MSVC\14.25.28610\ATLMFC\INCLUDE\BLACK\APPCAPTION\SYSBTN_CLOSE.PNG
C:\PROGRAM FILES (X86)\MICROSOFT VISUAL STUDIO\2019\COMMUNITY\VC\TOOLS\MSVC\14.25.28610\ATLMFC\INCLUDE\BLACK\APPCAPTION\SYSBTN_CLOSE_S.PNG
C:\PROGRAM FILES (X86)\MICROSOFT VISUAL STUDIO\2019\COMMUNITY\VC\TOOLS\MSVC\14.25.28610\ATLMFC\INCLUDE\BLACK\APPCAPTION\SYSBTN_MINIMIZE.PNG
C:\PROGRAM FILES (X86)\MICROSOFT VISUAL STUDIO\2019\COMMUNITY\VC\TOOLS\MSVC\14.25.28610\ATLMFC\INCLUDE\BLACK\APPCAPTION\SYSBTN_MINIMIZE_S.PNG
C:\PROGRAM FILES (X86)\MICROSOFT VISUAL STUDIO\2019\COMMUNITY\VC\TOOLS\MSVC\14.25.28610\ATLMFC\INCLUDE\BLACK\APPCAPTION\SYSBTN_MAXIMIZE.PNG
C:\PROGRAM FILES (X86)\MICROSOFT VISUAL STUDIO\2019\COMMUNITY\VC\TOOLS\MSVC\14.25.28610\ATLMFC\INCLUDE\BLACK\APPCAPTION\SYSBTN_MAXIMIZE_S.PNG
C:\PROGRAM FILES (X86)\MICROSOFT VISUAL STUDIO\2019\COMMUNITY\VC\TOOLS\MSVC\14.25.28610\ATLMFC\INCLUDE\BLACK\APPCAPTION\SYSBTN_RESTORE.PNG
C:\PROGRAM FILES (X86)\MICROSOFT VISUAL STUDIO\2019\COMMUNITY\VC\TOOLS\MSVC\14.25.28610\ATLMFC\INCLUDE\BLACK\APPCAPTION\SYSBTN_RESTORE_S.PNG
C:\PROGRAM FILES (X86)\MICROSOFT VISUAL STUDIO\2019\COMMUNITY\VC\TOOLS\MSVC\14.25.28610\ATLMFC\INCLUDE\BLACK\POPUPBAR\ITEM_MARKER_C.PNG
C:\PROGRAM FILES (X86)\MICROSOFT VISUAL STUDIO\2019\COMMUNITY\VC\TOOLS\MSVC\14.25.28610\ATLMFC\INCLUDE\BLACK\POPUPBAR\MENUHIGHLIGHT.PNG
C:\PROGRAM FILES (X86)\MICROSOFT VISUAL STUDIO\2019\COMMUNITY\VC\TOOLS\MSVC\14.25.28610\ATLMFC\INCLUDE\BLACK\POPUPBAR\MENUHIGHLIGHTDISABLED.PNG
C:\PROGRAM FILES (X86)\MICROSOFT VISUAL STUDIO\2019\COMMUNITY\VC\TOOLS\MSVC\14.25.28610\ATLMFC\INCLUDE\BLACK\POPUPBAR\MENUBUTTON.PNG
C:\PROGRAM FILES (X86)\MICROSOFT VISUAL STUDIO\2019\COMMUNITY\VC\TOOLS\MSVC\14.25.28610\ATLMFC\INCLUDE\BLACK\POPUPBAR\MENUSCROLLBTN.PNG
C:\PROGRAM FILES (X86)\MICROSOFT VISUAL STUDIO\2019\COMMUNITY\VC\TOOLS\MSVC\14.25.28610\ATLMFC\INCLUDE\BLACK\POPUPBAR\ITEM_BACK.PNG
C:\PROGRAM FILES (X86)\MICROSOFT VISUAL STUDIO\2019\COMMUNITY\VC\TOOLS\MSVC\14.25.28610\ATLMFC\INCLUDE\BLACK\TOOLBAR\BTN.PNG
C:\PROGRAM FILES (X86)\MICROSOFT VISUAL STUDIO\2019\COMMUNITY\VC\TOOLS\MSVC\14.25.28610\ATLMFC\INCLUDE\BLACK\TOOLBAR\BORDER.PNG
C:\PROGRAM FILES (X86)\MICROSOFT VISUAL STUDIO\2019\COMMUNITY\VC\TOOLS\MSVC\14.25.28610\ATLMFC\INCLUDE\BLACK\MENUBAR\BTN.PNG
C:\PROGRAM FILES (X86)\MICROSOFT VISUAL STUDIO\2019\COMMUNITY\VC\TOOLS\MSVC\14.25.28610\ATLMFC\INCLUDE\BLACK\POPUPBAR\BORDER.PNG
C:\PROGRAM FILES (X86)\MICROSOFT VISUAL STUDIO\2019\COMMUNITY\VC\TOOLS\MSVC\14.25.28610\ATLMFC\INCLUDE\BLACK\POPUPBAR\RESIZEBAR.PNG
C:\PROGRAM FILES (X86)\MICROSOFT VISUAL STUDIO\2019\COMMUNITY\VC\TOOLS\MSVC\14.25.28610\ATLMFC\INCLUDE\BLACK\POPUPBAR\RESIZEBAR_HV.PNG
C:\PROGRAM FILES (X86)\MICROSOFT VISUAL STUDIO\2019\COMMUNITY\VC\TOOLS\MSVC\14.25.28610\ATLMFC\INCLUDE\BLACK\POPUPBAR\RESIZEBAR_HVT.PNG
C:\PROGRAM FILES (X86)\MICROSOFT VISUAL STUDIO\2019\COMMUNITY\VC\TOOLS\MSVC\14.25.28610\ATLMFC\INCLUDE\BLACK\POPUPBAR\RESIZEBAR_V.PNG
C:\PROGRAM FILES (X86)\MICROSOFT VISUAL STUDIO\2019\COMMUNITY\VC\TOOLS\MSVC\14.25.28610\ATLMFC\INCLUDE\BLACK\POPUPBAR\ITEM_MARKER_R.PNG
C:\PROGRAM FILES (X86)\MICROSOFT VISUAL STUDIO\2019\COMMUNITY\VC\TOOLS\MSVC\14.25.28610\ATLMFC\INCLUDE\BLACK\POPUPBAR\GRIPPER.PNG
C:\PROGRAM FILES (X86)\MICROSOFT VISUAL STUDIO\2019\COMMUNITY\VC\TOOLS\MSVC\14.25.28610\ATLMFC\INCLUDE\BLACK\POPUPBAR\TEAR.PNG
C:\PROGRAM FILES (X86)\MICROSOFT VISUAL STUDIO\2019\COMMUNITY\VC\TOOLS\MSVC\14.25.28610\ATLMFC\INCLUDE\BLACK\TASKPANE\SCROLLBTN.PNG
C:\PROGRAM FILES (X86)\MICROSOFT VISUAL STUDIO\2019\COMMUNITY\VC\TOOLS\MSVC\14.25.28610\ATLMFC\INCLUDE\BLACK\COMBOBOX\BTN.PNG
C:\PROGRAM FILES (X86)\MICROSOFT VISUAL STUDIO\2019\COMMUNITY\VC\TOOLS\MSVC\14.25.28610\ATLMFC\INCLUDE\BLACK\TAB\3D.PNG
C:\PROGRAM FILES (X86)\MICROSOFT VISUAL STUDIO\2019\COMMUNITY\VC\TOOLS\MSVC\14.25.28610\ATLMFC\INCLUDE\BLACK\TAB\FLAT.PNG
C:\PROGRAM FILES (X86)\MICROSOFT VISUAL STUDIO\2019\COMMUNITY\VC\TOOLS\MSVC\14.25.28610\ATLMFC\INCLUDE\BLACK\OUTLOOKWND\BTNPAGE.PNG
C:\PROGRAM FILES (X86)\MICROSOFT VISUAL STUDIO\2019\COMMUNITY\VC\TOOLS\MSVC\14.25.28610\ATLMFC\INCLUDE\BLACK\OUTLOOKWND\BARBACK.PNG
C:\PROGRAM FILES (X86)\MICROSOFT VISUAL STUDIO\2019\COMMUNITY\VC\TOOLS\MSVC\14.25.28610\ATLMFC\INCLUDE\BLACK\RIBBON\CATEGORY_BACK.PNG
C:\PROGRAM FILES (X86)\MICROSOFT VISUAL STUDIO\2019\COMMUNITY\VC\TOOLS\MSVC\14.25.28610\ATLMFC\INCLUDE\BLACK\RIBBON\CATEGORY_TAB.PNG
C:\PROGRAM FILES (X86)\MICROSOFT VISUAL STUDIO\2019\COMMUNITY\VC\TOOLS\MSVC\14.25.28610\ATLMFC\INCLUDE\BLACK\RIBBON\CATEGORY_TAB_SEP.PNG
C:\PROGRAM FILES (X86)\MICROSOFT VISUAL STUDIO\2019\COMMUNITY\VC\TOOLS\MSVC\14.25.28610\ATLMFC\INCLUDE\BLACK\RIBBON\PANEL_BACK_T.PNG
C:\PROGRAM FILES (X86)\MICROSOFT VISUAL STUDIO\2019\COMMUNITY\VC\TOOLS\MSVC\14.25.28610\ATLMFC\INCLUDE\BLACK\RIBBON\PANEL_BACK_B.PNG
C:\PROGRAM FILES (X86)\MICROSOFT VISUAL STUDIO\2019\COMMUNITY\VC\TOOLS\MSVC\14.25.28610\ATLMFC\INCLUDE\BLACK\RIBBON\BUTTONS\GROUP_F.PNG
C:\PROGRAM FILES (X86)\MICROSOFT VISUAL STUDIO\2019\COMMUNITY\VC\TOOLS\MSVC\14.25.28610\ATLMFC\INCLUDE\BLACK\RIBBON\BUTTONS\GROUP_M.PNG
C:\PROGRAM FILES (X86)\MICROSOFT VISUAL STUDIO\2019\COMMUNITY\VC\TOOLS\MSVC\14.25.28610\ATLMFC\INCLUDE\BLACK\RIBBON\BUTTONS\GROUP_L.PNG
C:\PROGRAM FILES (X86)\MICROSOFT VISUAL STUDIO\2019\COMMUNITY\VC\TOOLS\MSVC\14.25.28610\ATLMFC\INCLUDE\BLACK\RIBBON\BUTTONS\GROUP_S.PNG
C:\PROGRAM FILES (X86)\MICROSOFT VISUAL STUDIO\2019\COMMUNITY\VC\TOOLS\MSVC\14.25.28610\ATLMFC\INCLUDE\BLACK\RIBBON\BUTTONS\NORMAL_S.PNG
C:\PROGRAM FILES (X86)\MICROSOFT VISUAL STUDIO\2019\COMMUNITY\VC\TOOLS\MSVC\14.25.28610\ATLMFC\INCLUDE\BLACK\RIBBON\BUTTONS\NORMAL_B.PNG
C:\PROGRAM FILES (X86)\MICROSOFT VISUAL STUDIO\2019\COMMUNITY\VC\TOOLS\MSVC\14.25.28610\ATLMFC\INCLUDE\BLACK\RIBBON\BUTTONS\LAUNCH.PNG
C:\PROGRAM FILES (X86)\MICROSOFT VISUAL STUDIO\2019\COMMUNITY\VC\TOOLS\MSVC\14.25.28610\ATLMFC\INCLUDE\BLACK\RIBBON\BUTTONS\LAUNCH_ICON.PNG
C:\PROGRAM FILES (X86)\MICROSOFT VISUAL STUDIO\2019\COMMUNITY\VC\TOOLS\MSVC\14.25.28610\ATLMFC\INCLUDE\BLACK\RIBBON\BUTTONS\MAIN.PNG
C:\PROGRAM FILES (X86)\MICROSOFT VISUAL STUDIO\2019\COMMUNITY\VC\TOOLS\MSVC\14.25.28610\ATLMFC\INCLUDE\BLACK\RIBBON\BUTTONS\DEFAULT.PNG
C:\PROGRAM FILES (X86)\MICROSOFT VISUAL STUDIO\2019\COMMUNITY\VC\TOOLS\MSVC\14.25.28610\ATLMFC\INCLUDE\BLACK\RIBBON\BUTTONS\DEFAULT_ICON.PNG
C:\PROGRAM FILES (X86)\MICROSOFT VISUAL STUDIO\2019\COMMUNITY\VC\TOOLS\MSVC\14.25.28610\ATLMFC\INCLUDE\BLACK\RIBBON\BUTTONS\DEFAULT_IMAGE.PNG
C:\PROGRAM FILES (X86)\MICROSOFT VISUAL STUDIO\2019\COMMUNITY\VC\TOOLS\MSVC\14.25.28610\ATLMFC\INCLUDE\BLACK\RIBBON\CAPTION_QA.PNG
C:\PROGRAM FILES (X86)\MICROSOFT VISUAL STUDIO\2019\COMMUNITY\VC\TOOLS\MSVC\14.25.28610\ATLMFC\INCLUDE\BLACK\RIBBON\CAPTION_QA_GLASS.PNG
C:\PROGRAM FILES (X86)\MICROSOFT VISUAL STUDIO\2019\COMMUNITY\VC\TOOLS\MSVC\14.25.28610\ATLMFC\INCLUDE\BLACK\RIBBON\BUTTONS\MENU_H_C.PNG
C:\PROGRAM FILES (X86)\MICROSOFT VISUAL STUDIO\2019\COMMUNITY\VC\TOOLS\MSVC\14.25.28610\ATLMFC\INCLUDE\BLACK\RIBBON\BUTTONS\MENU_H_M.PNG
C:\PROGRAM FILES (X86)\MICROSOFT VISUAL STUDIO\2019\COMMUNITY\VC\TOOLS\MSVC\14.25.28610\ATLMFC\INCLUDE\BLACK\RIBBON\BUTTONS\MENU_V_C.PNG
C:\PROGRAM FILES (X86)\MICROSOFT VISUAL STUDIO\2019\COMMUNITY\VC\TOOLS\MSVC\14.25.28610\ATLMFC\INCLUDE\BLACK\RIBBON\BUTTONS\MENU_V_M.PNG
C:\PROGRAM FILES (X86)\MICROSOFT VISUAL STUDIO\2019\COMMUNITY\VC\TOOLS\MSVC\14.25.28610\ATLMFC\INCLUDE\BLACK\RIBBON\BUTTONS\GROUPMENU_F_C.PNG
C:\PROGRAM FILES (X86)\MICROSOFT VISUAL STUDIO\2019\COMMUNITY\VC\TOOLS\MSVC\14.25.28610\ATLMFC\INCLUDE\BLACK\RIBBON\BUTTONS\GROUPMENU_F_M.PNG
C:\PROGRAM FILES (X86)\MICROSOFT VISUAL STUDIO\2019\COMMUNITY\VC\TOOLS\MSVC\14.25.28610\ATLMFC\INCLUDE\BLACK\RIBBON\BUTTONS\GROUPMENU_M_C.PNG
C:\PROGRAM FILES (X86)\MICROSOFT VISUAL STUDIO\2019\COMMUNITY\VC\TOOLS\MSVC\14.25.28610\ATLMFC\INCLUDE\BLACK\RIBBON\BUTTONS\GROUPMENU_M_M.PNG
C:\PROGRAM FILES (X86)\MICROSOFT VISUAL STUDIO\2019\COMMUNITY\VC\TOOLS\MSVC\14.25.28610\ATLMFC\INCLUDE\BLACK\RIBBON\BUTTONS\GROUPMENU_L_C.PNG
C:\PROGRAM FILES (X86)\MICROSOFT VISUAL STUDIO\2019\COMMUNITY\VC\TOOLS\MSVC\14.25.28610\ATLMFC\INCLUDE\BLACK\RIBBON\BUTTONS\GROUPMENU_L_M.PNG
C:\PROGRAM FILES (X86)\MICROSOFT VISUAL STUDIO\2019\COMMUNITY\VC\TOOLS\MSVC\14.25.28610\ATLMFC\INCLUDE\BLACK\RIBBON\BUTTONS\CHECK.PNG
C:\PROGRAM FILES (X86)\MICROSOFT VISUAL STUDIO\2019\COMMUNITY\VC\TOOLS\MSVC\14.25.28610\ATLMFC\INCLUDE\BLACK\RIBBON\SEPARATOR.PNG
C:\PROGRAM FILES (X86)\MICROSOFT VISUAL STUDIO\2019\COMMUNITY\VC\TOOLS\MSVC\14.25.28610\ATLMFC\INCLUDE\BLACK\RIBBON\PANEL_MAIN.PNG
C:\PROGRAM FILES (X86)\MICROSOFT VISUAL STUDIO\2019\COMMUNITY\VC\TOOLS\MSVC\14.25.28610\ATLMFC\INCLUDE\BLACK\RIBBON\PANEL_MAIN_BORDER.PNG
C:\PROGRAM FILES (X86)\MICROSOFT VISUAL STUDIO\2019\COMMUNITY\VC\TOOLS\MSVC\14.25.28610\ATLMFC\INCLUDE\BLACK\RIBBON\BUTTONS\MAIN_PANEL.PNG
C:\PROGRAM FILES (X86)\MICROSOFT VISUAL STUDIO\2019\COMMUNITY\VC\TOOLS\MSVC\14.25.28610\ATLMFC\INCLUDE\BLACK\RIBBON\BUTTONS\DEFAULT_QAT_ICON.PNG
C:\PROGRAM FILES (X86)\MICROSOFT VISUAL STUDIO\2019\COMMUNITY\VC\TOOLS\MSVC\14.25.28610\ATLMFC\INCLUDE\BLACK\RIBBON\PANEL_QAT.PNG
C:\PROGRAM FILES (X86)\MICROSOFT VISUAL STUDIO\2019\COMMUNITY\VC\TOOLS\MSVC\14.25.28610\ATLMFC\INCLUDE\BLACK\RIBBON\BUTTONS\PALETTE_T.PNG
C:\PROGRAM FILES (X86)\MICROSOFT VISUAL STUDIO\2019\COMMUNITY\VC\TOOLS\MSVC\14.25.28610\ATLMFC\INCLUDE\BLACK\RIBBON\BUTTONS\PALETTE_M.PNG
C:\PROGRAM FILES (X86)\MICROSOFT VISUAL STUDIO\2019\COMMUNITY\VC\TOOLS\MSVC\14.25.28610\ATLMFC\INCLUDE\BLACK\RIBBON\BUTTONS\PALETTE_B.PNG
C:\PROGRAM FILES (X86)\MICROSOFT VISUAL STUDIO\2019\COMMUNITY\VC\TOOLS\MSVC\14.25.28610\ATLMFC\INCLUDE\BLACK\RIBBON\BUTTONS\STATUSPANE.PNG
C:\PROGRAM FILES (X86)\MICROSOFT VISUAL STUDIO\2019\COMMUNITY\VC\TOOLS\MSVC\14.25.28610\ATLMFC\INCLUDE\BLACK\RIBBON\SLIDER\THUMB.PNG
C:\PROGRAM FILES (X86)\MICROSOFT VISUAL STUDIO\2019\COMMUNITY\VC\TOOLS\MSVC\14.25.28610\ATLMFC\INCLUDE\BLACK\RIBBON\SLIDER\PLUS.PNG
C:\PROGRAM FILES (X86)\MICROSOFT VISUAL STUDIO\2019\COMMUNITY\VC\TOOLS\MSVC\14.25.28610\ATLMFC\INCLUDE\BLACK\RIBBON\SLIDER\MINUS.PNG
C:\PROGRAM FILES (X86)\MICROSOFT VISUAL STUDIO\2019\COMMUNITY\VC\TOOLS\MSVC\14.25.28610\ATLMFC\INCLUDE\BLACK\RIBBON\PROGRESS\BACK.PNG
C:\PROGRAM FILES (X86)\MICROSOFT VISUAL STUDIO\2019\COMMUNITY\VC\TOOLS\MSVC\14.25.28610\ATLMFC\INCLUDE\BLACK\RIBBON\PROGRESS\NORMAL.PNG
C:\PROGRAM FILES (X86)\MICROSOFT VISUAL STUDIO\2019\COMMUNITY\VC\TOOLS\MSVC\14.25.28610\ATLMFC\INCLUDE\BLACK\RIBBON\PROGRESS\NORMAL_EXT.PNG
C:\PROGRAM FILES (X86)\MICROSOFT VISUAL STUDIO\2019\COMMUNITY\VC\TOOLS\MSVC\14.25.28610\ATLMFC\INCLUDE\BLACK\RIBBON\PROGRESS\INFINITY.PNG
C:\PROGRAM FILES (X86)\MICROSOFT VISUAL STUDIO\2019\COMMUNITY\VC\TOOLS\MSVC\14.25.28610\ATLMFC\INCLUDE\BLACK\RIBBON\BUTTONS\DEFAULT_QAT.PNG
C:\PROGRAM FILES (X86)\MICROSOFT VISUAL STUDIO\2019\COMMUNITY\VC\TOOLS\MSVC\14.25.28610\ATLMFC\INCLUDE\BLACK\RIBBON\BORDER_QAT.PNG
C:\PROGRAM FILES (X86)\MICROSOFT VISUAL STUDIO\2019\COMMUNITY\VC\TOOLS\MSVC\14.25.28610\ATLMFC\INCLUDE\BLACK\RIBBON\BORDER_FLOATY.PNG
C:\PROGRAM FILES (X86)\MICROSOFT VISUAL STUDIO\2019\COMMUNITY\VC\TOOLS\MSVC\14.25.28610\ATLMFC\INCLUDE\BLACK\RIBBON\KEYTIP.PNG
C:\PROGRAM FILES (X86)\MICROSOFT VISUAL STUDIO\2019\COMMUNITY\VC\TOOLS\MSVC\14.25.28610\ATLMFC\INCLUDE\BLACK\RIBBON\BUTTONS\PAGE_L.PNG
C:\PROGRAM FILES (X86)\MICROSOFT VISUAL STUDIO\2019\COMMUNITY\VC\TOOLS\MSVC\14.25.28610\ATLMFC\INCLUDE\BLACK\RIBBON\BUTTONS\PAGE_R.PNG
C:\PROGRAM FILES (X86)\MICROSOFT VISUAL STUDIO\2019\COMMUNITY\VC\TOOLS\MSVC\14.25.28610\ATLMFC\INCLUDE\BLACK\RIBBON\CATEGORY_CONTEXT\PANEL_BACK_B.PNG
C:\PROGRAM FILES (X86)\MICROSOFT VISUAL STUDIO\2019\COMMUNITY\VC\TOOLS\MSVC\14.25.28610\ATLMFC\INCLUDE\BLACK\RIBBON\CATEGORY_CONTEXT\PANEL_BACK_T.PNG
C:\PROGRAM FILES (X86)\MICROSOFT VISUAL STUDIO\2019\COMMUNITY\VC\TOOLS\MSVC\14.25.28610\ATLMFC\INCLUDE\BLACK\RIBBON\CATEGORY_CONTEXT\SEPARATOR.PNG
C:\PROGRAM FILES (X86)\MICROSOFT VISUAL STUDIO\2019\COMMUNITY\VC\TOOLS\MSVC\14.25.28610\ATLMFC\INCLUDE\BLACK\RIBBON\CATEGORY_CONTEXT\RED\DEFAULT.PNG
C:\PROGRAM FILES (X86)\MICROSOFT VISUAL STUDIO\2019\COMMUNITY\VC\TOOLS\MSVC\14.25.28610\ATLMFC\INCLUDE\BLACK\RIBBON\CATEGORY_CONTEXT\RED\TAB.PNG
C:\PROGRAM FILES (X86)\MICROSOFT VISUAL STUDIO\2019\COMMUNITY\VC\TOOLS\MSVC\14.25.28610\ATLMFC\INCLUDE\BLACK\RIBBON\CATEGORY_CONTEXT\RED\CAPTION.PNG
C:\PROGRAM FILES (X86)\MICROSOFT VISUAL STUDIO\2019\COMMUNITY\VC\TOOLS\MSVC\14.25.28610\ATLMFC\INCLUDE\BLACK\RIBBON\CATEGORY_CONTEXT\RED\BACK.PNG
C:\PROGRAM FILES (X86)\MICROSOFT VISUAL STUDIO\2019\COMMUNITY\VC\TOOLS\MSVC\14.25.28610\ATLMFC\INCLUDE\BLACK\RIBBON\CATEGORY_CONTEXT\ORANGE\DEFAULT.PNG
C:\PROGRAM FILES (X86)\MICROSOFT VISUAL STUDIO\2019\COMMUNITY\VC\TOOLS\MSVC\14.25.28610\ATLMFC\INCLUDE\BLACK\RIBBON\CATEGORY_CONTEXT\ORANGE\TAB.PNG
C:\PROGRAM FILES (X86)\MICROSOFT VISUAL STUDIO\2019\COMMUNITY\VC\TOOLS\MSVC\14.25.28610\ATLMFC\INCLUDE\BLACK\RIBBON\CATEGORY_CONTEXT\ORANGE\CAPTION.PNG
C:\PROGRAM FILES (X86)\MICROSOFT VISUAL STUDIO\2019\COMMUNITY\VC\TOOLS\MSVC\14.25.28610\ATLMFC\INCLUDE\BLACK\RIBBON\CATEGORY_CONTEXT\ORANGE\BACK.PNG
C:\PROGRAM FILES (X86)\MICROSOFT VISUAL STUDIO\2019\COMMUNITY\VC\TOOLS\MSVC\14.25.28610\ATLMFC\INCLUDE\BLACK\RIBBON\CATEGORY_CONTEXT\YELLOW\DEFAULT.PNG
C:\PROGRAM FILES (X86)\MICROSOFT VISUAL STUDIO\2019\COMMUNITY\VC\TOOLS\MSVC\14.25.28610\ATLMFC\INCLUDE\BLACK\RIBBON\CATEGORY_CONTEXT\YELLOW\TAB.PNG
C:\PROGRAM FILES (X86)\MICROSOFT VISUAL STUDIO\2019\COMMUNITY\VC\TOOLS\MSVC\14.25.28610\ATLMFC\INCLUDE\BLACK\RIBBON\CATEGORY_CONTEXT\YELLOW\CAPTION.PNG
C:\PROGRAM FILES (X86)\MICROSOFT VISUAL STUDIO\2019\COMMUNITY\VC\TOOLS\MSVC\14.25.28610\ATLMFC\INCLUDE\BLACK\RIBBON\CATEGORY_CONTEXT\YELLOW\BACK.PNG
C:\PROGRAM FILES (X86)\MICROSOFT VISUAL STUDIO\2019\COMMUNITY\VC\TOOLS\MSVC\14.25.28610\ATLMFC\INCLUDE\BLACK\RIBBON\CATEGORY_CONTEXT\GREEN\DEFAULT.PNG
C:\PROGRAM FILES (X86)\MICROSOFT VISUAL STUDIO\2019\COMMUNITY\VC\TOOLS\MSVC\14.25.28610\ATLMFC\INCLUDE\BLACK\RIBBON\CATEGORY_CONTEXT\GREEN\TAB.PNG
C:\PROGRAM FILES (X86)\MICROSOFT VISUAL STUDIO\2019\COMMUNITY\VC\TOOLS\MSVC\14.25.28610\ATLMFC\INCLUDE\BLACK\RIBBON\CATEGORY_CONTEXT\GREEN\CAPTION.PNG
C:\PROGRAM FILES (X86)\MICROSOFT VISUAL STUDIO\2019\COMMUNITY\VC\TOOLS\MSVC\14.25.28610\ATLMFC\INCLUDE\BLACK\RIBBON\CATEGORY_CONTEXT\GREEN\BACK.PNG
C:\PROGRAM FILES (X86)\MICROSOFT VISUAL STUDIO\2019\COMMUNITY\VC\TOOLS\MSVC\14.25.28610\ATLMFC\INCLUDE\BLACK\RIBBON\CATEGORY_CONTEXT\BLUE\DEFAULT.PNG
C:\PROGRAM FILES (X86)\MICROSOFT VISUAL STUDIO\2019\COMMUNITY\VC\TOOLS\MSVC\14.25.28610\ATLMFC\INCLUDE\BLACK\RIBBON\CATEGORY_CONTEXT\BLUE\TAB.PNG
C:\PROGRAM FILES (X86)\MICROSOFT VISUAL STUDIO\2019\COMMUNITY\VC\TOOLS\MSVC\14.25.28610\ATLMFC\INCLUDE\BLACK\RIBBON\CATEGORY_CONTEXT\BLUE\CAPTION.PNG
C:\PROGRAM FILES (X86)\MICROSOFT VISUAL STUDIO\2019\COMMUNITY\VC\TOOLS\MSVC\14.25.28610\ATLMFC\INCLUDE\BLACK\RIBBON\CATEGORY_CONTEXT\BLUE\BACK.PNG
C:\PROGRAM FILES (X86)\MICROSOFT VISUAL STUDIO\2019\COMMUNITY\VC\TOOLS\MSVC\14.25.28610\ATLMFC\INCLUDE\BLACK\RIBBON\CATEGORY_CONTEXT\INDIGO\DEFAULT.PNG
C:\PROGRAM FILES (X86)\MICROSOFT VISUAL STUDIO\2019\COMMUNITY\VC\TOOLS\MSVC\14.25.28610\ATLMFC\INCLUDE\BLACK\RIBBON\CATEGORY_CONTEXT\INDIGO\TAB.PNG
C:\PROGRAM FILES (X86)\MICROSOFT VISUAL STUDIO\2019\COMMUNITY\VC\TOOLS\MSVC\14.25.28610\ATLMFC\INCLUDE\BLACK\RIBBON\CATEGORY_CONTEXT\INDIGO\CAPTION.PNG
C:\PROGRAM FILES (X86)\MICROSOFT VISUAL STUDIO\2019\COMMUNITY\VC\TOOLS\MSVC\14.25.28610\ATLMFC\INCLUDE\BLACK\RIBBON\CATEGORY_CONTEXT\INDIGO\BACK.PNG
C:\PROGRAM FILES (X86)\MICROSOFT VISUAL STUDIO\2019\COMMUNITY\VC\TOOLS\MSVC\14.25.28610\ATLMFC\INCLUDE\BLACK\RIBBON\CATEGORY_CONTEXT\VIOLET\DEFAULT.PNG
C:\PROGRAM FILES (X86)\MICROSOFT VISUAL STUDIO\2019\COMMUNITY\VC\TOOLS\MSVC\14.25.28610\ATLMFC\INCLUDE\BLACK\RIBBON\CATEGORY_CONTEXT\VIOLET\TAB.PNG
C:\PROGRAM FILES (X86)\MICROSOFT VISUAL STUDIO\2019\COMMUNITY\VC\TOOLS\MSVC\14.25.28610\ATLMFC\INCLUDE\BLACK\RIBBON\CATEGORY_CONTEXT\VIOLET\CAPTION.PNG
C:\PROGRAM FILES (X86)\MICROSOFT VISUAL STUDIO\2019\COMMUNITY\VC\TOOLS\MSVC\14.25.28610\ATLMFC\INCLUDE\BLACK\RIBBON\CATEGORY_CONTEXT\VIOLET\BACK.PNG
C:\PROGRAM FILES (X86)\MICROSOFT VISUAL STUDIO\2019\COMMUNITY\VC\TOOLS\MSVC\14.25.28610\ATLMFC\INCLUDE\BLUE\STYLE.XML
C:\PROGRAM FILES (X86)\MICROSOFT VISUAL STUDIO\2019\COMMUNITY\VC\TOOLS\MSVC\14.25.28610\ATLMFC\INCLUDE\BLUE\MAINWND\BORDER.PNG
C:\PROGRAM FILES (X86)\MICROSOFT VISUAL STUDIO\2019\COMMUNITY\VC\TOOLS\MSVC\14.25.28610\ATLMFC\INCLUDE\BLUE\MAINWND\BORDERMDICHILD.PNG
C:\PROGRAM FILES (X86)\MICROSOFT VISUAL STUDIO\2019\COMMUNITY\VC\TOOLS\MSVC\14.25.28610\ATLMFC\INCLUDE\BLUE\MAINWND\BORDERCAPTION.PNG
C:\PROGRAM FILES (X86)\MICROSOFT VISUAL STUDIO\2019\COMMUNITY\VC\TOOLS\MSVC\14.25.28610\ATLMFC\INCLUDE\BLUE\STATUSBAR\BACK.PNG
C:\PROGRAM FILES (X86)\MICROSOFT VISUAL STUDIO\2019\COMMUNITY\VC\TOOLS\MSVC\14.25.28610\ATLMFC\INCLUDE\BLUE\STATUSBAR\BACK_EXT.PNG
C:\PROGRAM FILES (X86)\MICROSOFT VISUAL STUDIO\2019\COMMUNITY\VC\TOOLS\MSVC\14.25.28610\ATLMFC\INCLUDE\BLUE\STATUSBAR\SIZEGRIP.PNG
C:\PROGRAM FILES (X86)\MICROSOFT VISUAL STUDIO\2019\COMMUNITY\VC\TOOLS\MSVC\14.25.28610\ATLMFC\INCLUDE\BLUE\STATUSBAR\PANEBORDER.PNG
C:\PROGRAM FILES (X86)\MICROSOFT VISUAL STUDIO\2019\COMMUNITY\VC\TOOLS\MSVC\14.25.28610\ATLMFC\INCLUDE\BLUE\APPCAPTION\SYSBTN_BACK.PNG
C:\PROGRAM FILES (X86)\MICROSOFT VISUAL STUDIO\2019\COMMUNITY\VC\TOOLS\MSVC\14.25.28610\ATLMFC\INCLUDE\BLUE\APPCAPTION\SYSBTN_CLOSE.PNG
C:\PROGRAM FILES (X86)\MICROSOFT VISUAL STUDIO\2019\COMMUNITY\VC\TOOLS\MSVC\14.25.28610\ATLMFC\INCLUDE\BLUE\APPCAPTION\SYSBTN_CLOSE_S.PNG
C:\PROGRAM FILES (X86)\MICROSOFT VISUAL STUDIO\2019\COMMUNITY\VC\TOOLS\MSVC\14.25.28610\ATLMFC\INCLUDE\BLUE\APPCAPTION\SYSBTN_MINIMIZE.PNG
C:\PROGRAM FILES (X86)\MICROSOFT VISUAL STUDIO\2019\COMMUNITY\VC\TOOLS\MSVC\14.25.28610\ATLMFC\INCLUDE\BLUE\APPCAPTION\SYSBTN_MINIMIZE_S.PNG
C:\PROGRAM FILES (X86)\MICROSOFT VISUAL STUDIO\2019\COMMUNITY\VC\TOOLS\MSVC\14.25.28610\ATLMFC\INCLUDE\BLUE\APPCAPTION\SYSBTN_MAXIMIZE.PNG
C:\PROGRAM FILES (X86)\MICROSOFT VISUAL STUDIO\2019\COMMUNITY\VC\TOOLS\MSVC\14.25.28610\ATLMFC\INCLUDE\BLUE\APPCAPTION\SYSBTN_MAXIMIZE_S.PNG
C:\PROGRAM FILES (X86)\MICROSOFT VISUAL STUDIO\2019\COMMUNITY\VC\TOOLS\MSVC\14.25.28610\ATLMFC\INCLUDE\BLUE\APPCAPTION\SYSBTN_RESTORE.PNG
C:\PROGRAM FILES (X86)\MICROSOFT VISUAL STUDIO\2019\COMMUNITY\VC\TOOLS\MSVC\14.25.28610\ATLMFC\INCLUDE\BLUE\APPCAPTION\SYSBTN_RESTORE_S.PNG
C:\PROGRAM FILES (X86)\MICROSOFT VISUAL STUDIO\2019\COMMUNITY\VC\TOOLS\MSVC\14.25.28610\ATLMFC\INCLUDE\BLUE\POPUPBAR\ITEM_MARKER_C.PNG
C:\PROGRAM FILES (X86)\MICROSOFT VISUAL STUDIO\2019\COMMUNITY\VC\TOOLS\MSVC\14.25.28610\ATLMFC\INCLUDE\BLUE\POPUPBAR\MENUHIGHLIGHT.PNG
C:\PROGRAM FILES (X86)\MICROSOFT VISUAL STUDIO\2019\COMMUNITY\VC\TOOLS\MSVC\14.25.28610\ATLMFC\INCLUDE\BLUE\POPUPBAR\MENUHIGHLIGHTDISABLED.PNG
C:\PROGRAM FILES (X86)\MICROSOFT VISUAL STUDIO\2019\COMMUNITY\VC\TOOLS\MSVC\14.25.28610\ATLMFC\INCLUDE\BLUE\POPUPBAR\MENUBUTTON.PNG
C:\PROGRAM FILES (X86)\MICROSOFT VISUAL STUDIO\2019\COMMUNITY\VC\TOOLS\MSVC\14.25.28610\ATLMFC\INCLUDE\BLUE\POPUPBAR\MENUSCROLLBTN.PNG
C:\PROGRAM FILES (X86)\MICROSOFT VISUAL STUDIO\2019\COMMUNITY\VC\TOOLS\MSVC\14.25.28610\ATLMFC\INCLUDE\BLUE\POPUPBAR\ITEM_BACK.PNG
C:\PROGRAM FILES (X86)\MICROSOFT VISUAL STUDIO\2019\COMMUNITY\VC\TOOLS\MSVC\14.25.28610\ATLMFC\INCLUDE\BLUE\TOOLBAR\BTN.PNG
C:\PROGRAM FILES (X86)\MICROSOFT VISUAL STUDIO\2019\COMMUNITY\VC\TOOLS\MSVC\14.25.28610\ATLMFC\INCLUDE\BLUE\TOOLBAR\BORDER.PNG
C:\PROGRAM FILES (X86)\MICROSOFT VISUAL STUDIO\2019\COMMUNITY\VC\TOOLS\MSVC\14.25.28610\ATLMFC\INCLUDE\BLUE\MENUBAR\BTN.PNG
C:\PROGRAM FILES (X86)\MICROSOFT VISUAL STUDIO\2019\COMMUNITY\VC\TOOLS\MSVC\14.25.28610\ATLMFC\INCLUDE\BLUE\POPUPBAR\BORDER.PNG
C:\PROGRAM FILES (X86)\MICROSOFT VISUAL STUDIO\2019\COMMUNITY\VC\TOOLS\MSVC\14.25.28610\ATLMFC\INCLUDE\BLUE\POPUPBAR\RESIZEBAR.PNG
C:\PROGRAM FILES (X86)\MICROSOFT VISUAL STUDIO\2019\COMMUNITY\VC\TOOLS\MSVC\14.25.28610\ATLMFC\INCLUDE\BLUE\POPUPBAR\RESIZEBAR_HV.PNG
C:\PROGRAM FILES (X86)\MICROSOFT VISUAL STUDIO\2019\COMMUNITY\VC\TOOLS\MSVC\14.25.28610\ATLMFC\INCLUDE\BLUE\POPUPBAR\RESIZEBAR_HVT.PNG
C:\PROGRAM FILES (X86)\MICROSOFT VISUAL STUDIO\2019\COMMUNITY\VC\TOOLS\MSVC\14.25.28610\ATLMFC\INCLUDE\BLUE\POPUPBAR\RESIZEBAR_V.PNG
C:\PROGRAM FILES (X86)\MICROSOFT VISUAL STUDIO\2019\COMMUNITY\VC\TOOLS\MSVC\14.25.28610\ATLMFC\INCLUDE\BLUE\POPUPBAR\ITEM_MARKER_R.PNG
C:\PROGRAM FILES (X86)\MICROSOFT VISUAL STUDIO\2019\COMMUNITY\VC\TOOLS\MSVC\14.25.28610\ATLMFC\INCLUDE\BLUE\POPUPBAR\GRIPPER.PNG
C:\PROGRAM FILES (X86)\MICROSOFT VISUAL STUDIO\2019\COMMUNITY\VC\TOOLS\MSVC\14.25.28610\ATLMFC\INCLUDE\BLUE\POPUPBAR\TEAR.PNG
C:\PROGRAM FILES (X86)\MICROSOFT VISUAL STUDIO\2019\COMMUNITY\VC\TOOLS\MSVC\14.25.28610\ATLMFC\INCLUDE\BLUE\TASKPANE\SCROLLBTN.PNG
C:\PROGRAM FILES (X86)\MICROSOFT VISUAL STUDIO\2019\COMMUNITY\VC\TOOLS\MSVC\14.25.28610\ATLMFC\INCLUDE\BLUE\COMBOBOX\BTN.PNG
C:\PROGRAM FILES (X86)\MICROSOFT VISUAL STUDIO\2019\COMMUNITY\VC\TOOLS\MSVC\14.25.28610\ATLMFC\INCLUDE\BLUE\TAB\3D.PNG
C:\PROGRAM FILES (X86)\MICROSOFT VISUAL STUDIO\2019\COMMUNITY\VC\TOOLS\MSVC\14.25.28610\ATLMFC\INCLUDE\BLUE\TAB\FLAT.PNG
C:\PROGRAM FILES (X86)\MICROSOFT VISUAL STUDIO\2019\COMMUNITY\VC\TOOLS\MSVC\14.25.28610\ATLMFC\INCLUDE\BLUE\OUTLOOKWND\BTNPAGE.PNG
C:\PROGRAM FILES (X86)\MICROSOFT VISUAL STUDIO\2019\COMMUNITY\VC\TOOLS\MSVC\14.25.28610\ATLMFC\INCLUDE\BLUE\OUTLOOKWND\BARBACK.PNG
C:\PROGRAM FILES (X86)\MICROSOFT VISUAL STUDIO\2019\COMMUNITY\VC\TOOLS\MSVC\14.25.28610\ATLMFC\INCLUDE\BLUE\RIBBON\CATEGORY_BACK.PNG
C:\PROGRAM FILES (X86)\MICROSOFT VISUAL STUDIO\2019\COMMUNITY\VC\TOOLS\MSVC\14.25.28610\ATLMFC\INCLUDE\BLUE\RIBBON\CATEGORY_TAB.PNG
C:\PROGRAM FILES (X86)\MICROSOFT VISUAL STUDIO\2019\COMMUNITY\VC\TOOLS\MSVC\14.25.28610\ATLMFC\INCLUDE\BLUE\RIBBON\CATEGORY_TAB_SEP.PNG
C:\PROGRAM FILES (X86)\MICROSOFT VISUAL STUDIO\2019\COMMUNITY\VC\TOOLS\MSVC\14.25.28610\ATLMFC\INCLUDE\BLUE\RIBBON\PANEL_BACK_T.PNG
C:\PROGRAM FILES (X86)\MICROSOFT VISUAL STUDIO\2019\COMMUNITY\VC\TOOLS\MSVC\14.25.28610\ATLMFC\INCLUDE\BLUE\RIBBON\PANEL_BACK_B.PNG
C:\PROGRAM FILES (X86)\MICROSOFT VISUAL STUDIO\2019\COMMUNITY\VC\TOOLS\MSVC\14.25.28610\ATLMFC\INCLUDE\BLUE\RIBBON\BUTTONS\GROUP_F.PNG
C:\PROGRAM FILES (X86)\MICROSOFT VISUAL STUDIO\2019\COMMUNITY\VC\TOOLS\MSVC\14.25.28610\ATLMFC\INCLUDE\BLUE\RIBBON\BUTTONS\GROUP_M.PNG
C:\PROGRAM FILES (X86)\MICROSOFT VISUAL STUDIO\2019\COMMUNITY\VC\TOOLS\MSVC\14.25.28610\ATLMFC\INCLUDE\BLUE\RIBBON\BUTTONS\GROUP_L.PNG
C:\PROGRAM FILES (X86)\MICROSOFT VISUAL STUDIO\2019\COMMUNITY\VC\TOOLS\MSVC\14.25.28610\ATLMFC\INCLUDE\BLUE\RIBBON\BUTTONS\GROUP_S.PNG
C:\PROGRAM FILES (X86)\MICROSOFT VISUAL STUDIO\2019\COMMUNITY\VC\TOOLS\MSVC\14.25.28610\ATLMFC\INCLUDE\BLUE\RIBBON\BUTTONS\NORMAL_S.PNG
C:\PROGRAM FILES (X86)\MICROSOFT VISUAL STUDIO\2019\COMMUNITY\VC\TOOLS\MSVC\14.25.28610\ATLMFC\INCLUDE\BLUE\RIBBON\BUTTONS\NORMAL_B.PNG
C:\PROGRAM FILES (X86)\MICROSOFT VISUAL STUDIO\2019\COMMUNITY\VC\TOOLS\MSVC\14.25.28610\ATLMFC\INCLUDE\BLUE\RIBBON\BUTTONS\LAUNCH.PNG
C:\PROGRAM FILES (X86)\MICROSOFT VISUAL STUDIO\2019\COMMUNITY\VC\TOOLS\MSVC\14.25.28610\ATLMFC\INCLUDE\BLUE\RIBBON\BUTTONS\LAUNCH_ICON.PNG
C:\PROGRAM FILES (X86)\MICROSOFT VISUAL STUDIO\2019\COMMUNITY\VC\TOOLS\MSVC\14.25.28610\ATLMFC\INCLUDE\BLUE\RIBBON\BUTTONS\MAIN.PNG
C:\PROGRAM FILES (X86)\MICROSOFT VISUAL STUDIO\2019\COMMUNITY\VC\TOOLS\MSVC\14.25.28610\ATLMFC\INCLUDE\BLUE\RIBBON\BUTTONS\DEFAULT.PNG
C:\PROGRAM FILES (X86)\MICROSOFT VISUAL STUDIO\2019\COMMUNITY\VC\TOOLS\MSVC\14.25.28610\ATLMFC\INCLUDE\BLUE\RIBBON\BUTTONS\DEFAULT_ICON.PNG
C:\PROGRAM FILES (X86)\MICROSOFT VISUAL STUDIO\2019\COMMUNITY\VC\TOOLS\MSVC\14.25.28610\ATLMFC\INCLUDE\BLUE\RIBBON\BUTTONS\DEFAULT_IMAGE.PNG
C:\PROGRAM FILES (X86)\MICROSOFT VISUAL STUDIO\2019\COMMUNITY\VC\TOOLS\MSVC\14.25.28610\ATLMFC\INCLUDE\BLUE\RIBBON\CAPTION_QA.PNG
C:\PROGRAM FILES (X86)\MICROSOFT VISUAL STUDIO\2019\COMMUNITY\VC\TOOLS\MSVC\14.25.28610\ATLMFC\INCLUDE\BLUE\RIBBON\CAPTION_QA_GLASS.PNG
C:\PROGRAM FILES (X86)\MICROSOFT VISUAL STUDIO\2019\COMMUNITY\VC\TOOLS\MSVC\14.25.28610\ATLMFC\INCLUDE\BLUE\RIBBON\BUTTONS\MENU_H_C.PNG
C:\PROGRAM FILES (X86)\MICROSOFT VISUAL STUDIO\2019\COMMUNITY\VC\TOOLS\MSVC\14.25.28610\ATLMFC\INCLUDE\BLUE\RIBBON\BUTTONS\MENU_H_M.PNG
C:\PROGRAM FILES (X86)\MICROSOFT VISUAL STUDIO\2019\COMMUNITY\VC\TOOLS\MSVC\14.25.28610\ATLMFC\INCLUDE\BLUE\RIBBON\BUTTONS\MENU_V_C.PNG
C:\PROGRAM FILES (X86)\MICROSOFT VISUAL STUDIO\2019\COMMUNITY\VC\TOOLS\MSVC\14.25.28610\ATLMFC\INCLUDE\BLUE\RIBBON\BUTTONS\MENU_V_M.PNG
C:\PROGRAM FILES (X86)\MICROSOFT VISUAL STUDIO\2019\COMMUNITY\VC\TOOLS\MSVC\14.25.28610\ATLMFC\INCLUDE\BLUE\RIBBON\BUTTONS\GROUPMENU_F_C.PNG
C:\PROGRAM FILES (X86)\MICROSOFT VISUAL STUDIO\2019\COMMUNITY\VC\TOOLS\MSVC\14.25.28610\ATLMFC\INCLUDE\BLUE\RIBBON\BUTTONS\GROUPMENU_F_M.PNG
C:\PROGRAM FILES (X86)\MICROSOFT VISUAL STUDIO\2019\COMMUNITY\VC\TOOLS\MSVC\14.25.28610\ATLMFC\INCLUDE\BLUE\RIBBON\BUTTONS\GROUPMENU_M_C.PNG
C:\PROGRAM FILES (X86)\MICROSOFT VISUAL STUDIO\2019\COMMUNITY\VC\TOOLS\MSVC\14.25.28610\ATLMFC\INCLUDE\BLUE\RIBBON\BUTTONS\GROUPMENU_M_M.PNG
C:\PROGRAM FILES (X86)\MICROSOFT VISUAL STUDIO\2019\COMMUNITY\VC\TOOLS\MSVC\14.25.28610\ATLMFC\INCLUDE\BLUE\RIBBON\BUTTONS\GROUPMENU_L_C.PNG
C:\PROGRAM FILES (X86)\MICROSOFT VISUAL STUDIO\2019\COMMUNITY\VC\TOOLS\MSVC\14.25.28610\ATLMFC\INCLUDE\BLUE\RIBBON\BUTTONS\GROUPMENU_L_M.PNG
C:\PROGRAM FILES (X86)\MICROSOFT VISUAL STUDIO\2019\COMMUNITY\VC\TOOLS\MSVC\14.25.28610\ATLMFC\INCLUDE\BLUE\RIBBON\BUTTONS\CHECK.PNG
C:\PROGRAM FILES (X86)\MICROSOFT VISUAL STUDIO\2019\COMMUNITY\VC\TOOLS\MSVC\14.25.28610\ATLMFC\INCLUDE\BLUE\RIBBON\SEPARATOR.PNG
C:\PROGRAM FILES (X86)\MICROSOFT VISUAL STUDIO\2019\COMMUNITY\VC\TOOLS\MSVC\14.25.28610\ATLMFC\INCLUDE\BLUE\RIBBON\PANEL_MAIN.PNG
C:\PROGRAM FILES (X86)\MICROSOFT VISUAL STUDIO\2019\COMMUNITY\VC\TOOLS\MSVC\14.25.28610\ATLMFC\INCLUDE\BLUE\RIBBON\PANEL_MAIN_BORDER.PNG
C:\PROGRAM FILES (X86)\MICROSOFT VISUAL STUDIO\2019\COMMUNITY\VC\TOOLS\MSVC\14.25.28610\ATLMFC\INCLUDE\BLUE\RIBBON\BUTTONS\MAIN_PANEL.PNG
C:\PROGRAM FILES (X86)\MICROSOFT VISUAL STUDIO\2019\COMMUNITY\VC\TOOLS\MSVC\14.25.28610\ATLMFC\INCLUDE\BLUE\RIBBON\BUTTONS\DEFAULT_QAT_ICON.PNG
C:\PROGRAM FILES (X86)\MICROSOFT VISUAL STUDIO\2019\COMMUNITY\VC\TOOLS\MSVC\14.25.28610\ATLMFC\INCLUDE\BLUE\RIBBON\PANEL_QAT.PNG
C:\PROGRAM FILES (X86)\MICROSOFT VISUAL STUDIO\2019\COMMUNITY\VC\TOOLS\MSVC\14.25.28610\ATLMFC\INCLUDE\BLUE\RIBBON\BUTTONS\PALETTE_T.PNG
C:\PROGRAM FILES (X86)\MICROSOFT VISUAL STUDIO\2019\COMMUNITY\VC\TOOLS\MSVC\14.25.28610\ATLMFC\INCLUDE\BLUE\RIBBON\BUTTONS\PALETTE_M.PNG
C:\PROGRAM FILES (X86)\MICROSOFT VISUAL STUDIO\2019\COMMUNITY\VC\TOOLS\MSVC\14.25.28610\ATLMFC\INCLUDE\BLUE\RIBBON\BUTTONS\PALETTE_B.PNG
C:\PROGRAM FILES (X86)\MICROSOFT VISUAL STUDIO\2019\COMMUNITY\VC\TOOLS\MSVC\14.25.28610\ATLMFC\INCLUDE\BLUE\RIBBON\BUTTONS\STATUSPANE.PNG
C:\PROGRAM FILES (X86)\MICROSOFT VISUAL STUDIO\2019\COMMUNITY\VC\TOOLS\MSVC\14.25.28610\ATLMFC\INCLUDE\BLUE\RIBBON\SLIDER\THUMB.PNG
C:\PROGRAM FILES (X86)\MICROSOFT VISUAL STUDIO\2019\COMMUNITY\VC\TOOLS\MSVC\14.25.28610\ATLMFC\INCLUDE\BLUE\RIBBON\SLIDER\PLUS.PNG
C:\PROGRAM FILES (X86)\MICROSOFT VISUAL STUDIO\2019\COMMUNITY\VC\TOOLS\MSVC\14.25.28610\ATLMFC\INCLUDE\BLUE\RIBBON\SLIDER\MINUS.PNG
C:\PROGRAM FILES (X86)\MICROSOFT VISUAL STUDIO\2019\COMMUNITY\VC\TOOLS\MSVC\14.25.28610\ATLMFC\INCLUDE\BLUE\RIBBON\PROGRESS\BACK.PNG
C:\PROGRAM FILES (X86)\MICROSOFT VISUAL STUDIO\2019\COMMUNITY\VC\TOOLS\MSVC\14.25.28610\ATLMFC\INCLUDE\BLUE\RIBBON\PROGRESS\NORMAL.PNG
C:\PROGRAM FILES (X86)\MICROSOFT VISUAL STUDIO\2019\COMMUNITY\VC\TOOLS\MSVC\14.25.28610\ATLMFC\INCLUDE\BLUE\RIBBON\PROGRESS\NORMAL_EXT.PNG
C:\PROGRAM FILES (X86)\MICROSOFT VISUAL STUDIO\2019\COMMUNITY\VC\TOOLS\MSVC\14.25.28610\ATLMFC\INCLUDE\BLUE\RIBBON\PROGRESS\INFINITY.PNG
C:\PROGRAM FILES (X86)\MICROSOFT VISUAL STUDIO\2019\COMMUNITY\VC\TOOLS\MSVC\14.25.28610\ATLMFC\INCLUDE\BLUE\RIBBON\BUTTONS\DEFAULT_QAT.PNG
C:\PROGRAM FILES (X86)\MICROSOFT VISUAL STUDIO\2019\COMMUNITY\VC\TOOLS\MSVC\14.25.28610\ATLMFC\INCLUDE\BLUE\RIBBON\BORDER_QAT.PNG
C:\PROGRAM FILES (X86)\MICROSOFT VISUAL STUDIO\2019\COMMUNITY\VC\TOOLS\MSVC\14.25.28610\ATLMFC\INCLUDE\BLUE\RIBBON\BORDER_FLOATY.PNG
C:\PROGRAM FILES (X86)\MICROSOFT VISUAL STUDIO\2019\COMMUNITY\VC\TOOLS\MSVC\14.25.28610\ATLMFC\INCLUDE\BLUE\RIBBON\KEYTIP.PNG
C:\PROGRAM FILES (X86)\MICROSOFT VISUAL STUDIO\2019\COMMUNITY\VC\TOOLS\MSVC\14.25.28610\ATLMFC\INCLUDE\BLUE\RIBBON\BUTTONS\PAGE_L.PNG
C:\PROGRAM FILES (X86)\MICROSOFT VISUAL STUDIO\2019\COMMUNITY\VC\TOOLS\MSVC\14.25.28610\ATLMFC\INCLUDE\BLUE\RIBBON\BUTTONS\PAGE_R.PNG
C:\PROGRAM FILES (X86)\MICROSOFT VISUAL STUDIO\2019\COMMUNITY\VC\TOOLS\MSVC\14.25.28610\ATLMFC\INCLUDE\BLUE\RIBBON\CATEGORY_CONTEXT\PANEL_BACK_B.PNG
C:\PROGRAM FILES (X86)\MICROSOFT VISUAL STUDIO\2019\COMMUNITY\VC\TOOLS\MSVC\14.25.28610\ATLMFC\INCLUDE\BLUE\RIBBON\CATEGORY_CONTEXT\PANEL_BACK_T.PNG
C:\PROGRAM FILES (X86)\MICROSOFT VISUAL STUDIO\2019\COMMUNITY\VC\TOOLS\MSVC\14.25.28610\ATLMFC\INCLUDE\BLUE\RIBBON\CATEGORY_CONTEXT\SEPARATOR.PNG
C:\PROGRAM FILES (X86)\MICROSOFT VISUAL STUDIO\2019\COMMUNITY\VC\TOOLS\MSVC\14.25.28610\ATLMFC\INCLUDE\BLUE\RIBBON\CATEGORY_CONTEXT\RED\DEFAULT.PNG
C:\PROGRAM FILES (X86)\MICROSOFT VISUAL STUDIO\2019\COMMUNITY\VC\TOOLS\MSVC\14.25.28610\ATLMFC\INCLUDE\BLUE\RIBBON\CATEGORY_CONTEXT\RED\TAB.PNG
C:\PROGRAM FILES (X86)\MICROSOFT VISUAL STUDIO\2019\COMMUNITY\VC\TOOLS\MSVC\14.25.28610\ATLMFC\INCLUDE\BLUE\RIBBON\CATEGORY_CONTEXT\RED\CAPTION.PNG
C:\PROGRAM FILES (X86)\MICROSOFT VISUAL STUDIO\2019\COMMUNITY\VC\TOOLS\MSVC\14.25.28610\ATLMFC\INCLUDE\BLUE\RIBBON\CATEGORY_CONTEXT\RED\BACK.PNG
C:\PROGRAM FILES (X86)\MICROSOFT VISUAL STUDIO\2019\COMMUNITY\VC\TOOLS\MSVC\14.25.28610\ATLMFC\INCLUDE\BLUE\RIBBON\CATEGORY_CONTEXT\ORANGE\DEFAULT.PNG
C:\PROGRAM FILES (X86)\MICROSOFT VISUAL STUDIO\2019\COMMUNITY\VC\TOOLS\MSVC\14.25.28610\ATLMFC\INCLUDE\BLUE\RIBBON\CATEGORY_CONTEXT\ORANGE\TAB.PNG
C:\PROGRAM FILES (X86)\MICROSOFT VISUAL STUDIO\2019\COMMUNITY\VC\TOOLS\MSVC\14.25.28610\ATLMFC\INCLUDE\BLUE\RIBBON\CATEGORY_CONTEXT\ORANGE\CAPTION.PNG
C:\PROGRAM FILES (X86)\MICROSOFT VISUAL STUDIO\2019\COMMUNITY\VC\TOOLS\MSVC\14.25.28610\ATLMFC\INCLUDE\BLUE\RIBBON\CATEGORY_CONTEXT\ORANGE\BACK.PNG
C:\PROGRAM FILES (X86)\MICROSOFT VISUAL STUDIO\2019\COMMUNITY\VC\TOOLS\MSVC\14.25.28610\ATLMFC\INCLUDE\BLUE\RIBBON\CATEGORY_CONTEXT\YELLOW\DEFAULT.PNG
C:\PROGRAM FILES (X86)\MICROSOFT VISUAL STUDIO\2019\COMMUNITY\VC\TOOLS\MSVC\14.25.28610\ATLMFC\INCLUDE\BLUE\RIBBON\CATEGORY_CONTEXT\YELLOW\TAB.PNG
C:\PROGRAM FILES (X86)\MICROSOFT VISUAL STUDIO\2019\COMMUNITY\VC\TOOLS\MSVC\14.25.28610\ATLMFC\INCLUDE\BLUE\RIBBON\CATEGORY_CONTEXT\YELLOW\CAPTION.PNG
C:\PROGRAM FILES (X86)\MICROSOFT VISUAL STUDIO\2019\COMMUNITY\VC\TOOLS\MSVC\14.25.28610\ATLMFC\INCLUDE\BLUE\RIBBON\CATEGORY_CONTEXT\YELLOW\BACK.PNG
C:\PROGRAM FILES (X86)\MICROSOFT VISUAL STUDIO\2019\COMMUNITY\VC\TOOLS\MSVC\14.25.28610\ATLMFC\INCLUDE\BLUE\RIBBON\CATEGORY_CONTEXT\GREEN\DEFAULT.PNG
C:\PROGRAM FILES (X86)\MICROSOFT VISUAL STUDIO\2019\COMMUNITY\VC\TOOLS\MSVC\14.25.28610\ATLMFC\INCLUDE\BLUE\RIBBON\CATEGORY_CONTEXT\GREEN\TAB.PNG
C:\PROGRAM FILES (X86)\MICROSOFT VISUAL STUDIO\2019\COMMUNITY\VC\TOOLS\MSVC\14.25.28610\ATLMFC\INCLUDE\BLUE\RIBBON\CATEGORY_CONTEXT\GREEN\CAPTION.PNG
C:\PROGRAM FILES (X86)\MICROSOFT VISUAL STUDIO\2019\COMMUNITY\VC\TOOLS\MSVC\14.25.28610\ATLMFC\INCLUDE\BLUE\RIBBON\CATEGORY_CONTEXT\GREEN\BACK.PNG
C:\PROGRAM FILES (X86)\MICROSOFT VISUAL STUDIO\2019\COMMUNITY\VC\TOOLS\MSVC\14.25.28610\ATLMFC\INCLUDE\BLUE\RIBBON\CATEGORY_CONTEXT\BLUE\DEFAULT.PNG
C:\PROGRAM FILES (X86)\MICROSOFT VISUAL STUDIO\2019\COMMUNITY\VC\TOOLS\MSVC\14.25.28610\ATLMFC\INCLUDE\BLUE\RIBBON\CATEGORY_CONTEXT\BLUE\TAB.PNG
C:\PROGRAM FILES (X86)\MICROSOFT VISUAL STUDIO\2019\COMMUNITY\VC\TOOLS\MSVC\14.25.28610\ATLMFC\INCLUDE\BLUE\RIBBON\CATEGORY_CONTEXT\BLUE\CAPTION.PNG
C:\PROGRAM FILES (X86)\MICROSOFT VISUAL STUDIO\2019\COMMUNITY\VC\TOOLS\MSVC\14.25.28610\ATLMFC\INCLUDE\BLUE\RIBBON\CATEGORY_CONTEXT\BLUE\BACK.PNG
C:\PROGRAM FILES (X86)\MICROSOFT VISUAL STUDIO\2019\COMMUNITY\VC\TOOLS\MSVC\14.25.28610\ATLMFC\INCLUDE\BLUE\RIBBON\CATEGORY_CONTEXT\INDIGO\DEFAULT.PNG
C:\PROGRAM FILES (X86)\MICROSOFT VISUAL STUDIO\2019\COMMUNITY\VC\TOOLS\MSVC\14.25.28610\ATLMFC\INCLUDE\BLUE\RIBBON\CATEGORY_CONTEXT\INDIGO\TAB.PNG
C:\PROGRAM FILES (X86)\MICROSOFT VISUAL STUDIO\2019\COMMUNITY\VC\TOOLS\MSVC\14.25.28610\ATLMFC\INCLUDE\BLUE\RIBBON\CATEGORY_CONTEXT\INDIGO\CAPTION.PNG
C:\PROGRAM FILES (X86)\MICROSOFT VISUAL STUDIO\2019\COMMUNITY\VC\TOOLS\MSVC\14.25.28610\ATLMFC\INCLUDE\BLUE\RIBBON\CATEGORY_CONTEXT\INDIGO\BACK.PNG
C:\PROGRAM FILES (X86)\MICROSOFT VISUAL STUDIO\2019\COMMUNITY\VC\TOOLS\MSVC\14.25.28610\ATLMFC\INCLUDE\BLUE\RIBBON\CATEGORY_CONTEXT\VIOLET\DEFAULT.PNG
C:\PROGRAM FILES (X86)\MICROSOFT VISUAL STUDIO\2019\COMMUNITY\VC\TOOLS\MSVC\14.25.28610\ATLMFC\INCLUDE\BLUE\RIBBON\CATEGORY_CONTEXT\VIOLET\TAB.PNG
C:\PROGRAM FILES (X86)\MICROSOFT VISUAL STUDIO\2019\COMMUNITY\VC\TOOLS\MSVC\14.25.28610\ATLMFC\INCLUDE\BLUE\RIBBON\CATEGORY_CONTEXT\VIOLET\CAPTION.PNG
C:\PROGRAM FILES (X86)\MICROSOFT VISUAL STUDIO\2019\COMMUNITY\VC\TOOLS\MSVC\14.25.28610\ATLMFC\INCLUDE\BLUE\RIBBON\CATEGORY_CONTEXT\VIOLET\BACK.PNG
C:\PROGRAM FILES (X86)\MICROSOFT VISUAL STUDIO\2019\COMMUNITY\VC\TOOLS\MSVC\14.25.28610\ATLMFC\INCLUDE\SILVER\STYLE.XML
C:\PROGRAM FILES (X86)\MICROSOFT VISUAL STUDIO\2019\COMMUNITY\VC\TOOLS\MSVC\14.25.28610\ATLMFC\INCLUDE\SILVER\MAINWND\BORDER.PNG
C:\PROGRAM FILES (X86)\MICROSOFT VISUAL STUDIO\2019\COMMUNITY\VC\TOOLS\MSVC\14.25.28610\ATLMFC\INCLUDE\SILVER\MAINWND\BORDERMDICHILD.PNG
C:\PROGRAM FILES (X86)\MICROSOFT VISUAL STUDIO\2019\COMMUNITY\VC\TOOLS\MSVC\14.25.28610\ATLMFC\INCLUDE\SILVER\MAINWND\BORDERCAPTION.PNG
C:\PROGRAM FILES (X86)\MICROSOFT VISUAL STUDIO\2019\COMMUNITY\VC\TOOLS\MSVC\14.25.28610\ATLMFC\INCLUDE\SILVER\STATUSBAR\BACK.PNG
C:\PROGRAM FILES (X86)\MICROSOFT VISUAL STUDIO\2019\COMMUNITY\VC\TOOLS\MSVC\14.25.28610\ATLMFC\INCLUDE\SILVER\STATUSBAR\BACK_EXT.PNG
C:\PROGRAM FILES (X86)\MICROSOFT VISUAL STUDIO\2019\COMMUNITY\VC\TOOLS\MSVC\14.25.28610\ATLMFC\INCLUDE\SILVER\STATUSBAR\SIZEGRIP.PNG
C:\PROGRAM FILES (X86)\MICROSOFT VISUAL STUDIO\2019\COMMUNITY\VC\TOOLS\MSVC\14.25.28610\ATLMFC\INCLUDE\SILVER\STATUSBAR\PANEBORDER.PNG
C:\PROGRAM FILES (X86)\MICROSOFT VISUAL STUDIO\2019\COMMUNITY\VC\TOOLS\MSVC\14.25.28610\ATLMFC\INCLUDE\SILVER\APPCAPTION\SYSBTN_BACK.PNG
C:\PROGRAM FILES (X86)\MICROSOFT VISUAL STUDIO\2019\COMMUNITY\VC\TOOLS\MSVC\14.25.28610\ATLMFC\INCLUDE\SILVER\APPCAPTION\SYSBTN_CLOSE.PNG
C:\PROGRAM FILES (X86)\MICROSOFT VISUAL STUDIO\2019\COMMUNITY\VC\TOOLS\MSVC\14.25.28610\ATLMFC\INCLUDE\SILVER\APPCAPTION\SYSBTN_CLOSE_S.PNG
C:\PROGRAM FILES (X86)\MICROSOFT VISUAL STUDIO\2019\COMMUNITY\VC\TOOLS\MSVC\14.25.28610\ATLMFC\INCLUDE\SILVER\APPCAPTION\SYSBTN_MINIMIZE.PNG
C:\PROGRAM FILES (X86)\MICROSOFT VISUAL STUDIO\2019\COMMUNITY\VC\TOOLS\MSVC\14.25.28610\ATLMFC\INCLUDE\SILVER\APPCAPTION\SYSBTN_MINIMIZE_S.PNG
C:\PROGRAM FILES (X86)\MICROSOFT VISUAL STUDIO\2019\COMMUNITY\VC\TOOLS\MSVC\14.25.28610\ATLMFC\INCLUDE\SILVER\APPCAPTION\SYSBTN_MAXIMIZE.PNG
C:\PROGRAM FILES (X86)\MICROSOFT VISUAL STUDIO\2019\COMMUNITY\VC\TOOLS\MSVC\14.25.28610\ATLMFC\INCLUDE\SILVER\APPCAPTION\SYSBTN_MAXIMIZE_S.PNG
C:\PROGRAM FILES (X86)\MICROSOFT VISUAL STUDIO\2019\COMMUNITY\VC\TOOLS\MSVC\14.25.28610\ATLMFC\INCLUDE\SILVER\APPCAPTION\SYSBTN_RESTORE.PNG
C:\PROGRAM FILES (X86)\MICROSOFT VISUAL STUDIO\2019\COMMUNITY\VC\TOOLS\MSVC\14.25.28610\ATLMFC\INCLUDE\SILVER\APPCAPTION\SYSBTN_RESTORE_S.PNG
C:\PROGRAM FILES (X86)\MICROSOFT VISUAL STUDIO\2019\COMMUNITY\VC\TOOLS\MSVC\14.25.28610\ATLMFC\INCLUDE\SILVER\POPUPBAR\ITEM_MARKER_C.PNG
C:\PROGRAM FILES (X86)\MICROSOFT VISUAL STUDIO\2019\COMMUNITY\VC\TOOLS\MSVC\14.25.28610\ATLMFC\INCLUDE\SILVER\POPUPBAR\MENUHIGHLIGHT.PNG
C:\PROGRAM FILES (X86)\MICROSOFT VISUAL STUDIO\2019\COMMUNITY\VC\TOOLS\MSVC\14.25.28610\ATLMFC\INCLUDE\SILVER\POPUPBAR\MENUHIGHLIGHTDISABLED.PNG
C:\PROGRAM FILES (X86)\MICROSOFT VISUAL STUDIO\2019\COMMUNITY\VC\TOOLS\MSVC\14.25.28610\ATLMFC\INCLUDE\SILVER\POPUPBAR\MENUBUTTON.PNG
C:\PROGRAM FILES (X86)\MICROSOFT VISUAL STUDIO\2019\COMMUNITY\VC\TOOLS\MSVC\14.25.28610\ATLMFC\INCLUDE\SILVER\POPUPBAR\MENUSCROLLBTN.PNG
C:\PROGRAM FILES (X86)\MICROSOFT VISUAL STUDIO\2019\COMMUNITY\VC\TOOLS\MSVC\14.25.28610\ATLMFC\INCLUDE\SILVER\POPUPBAR\ITEM_BACK.PNG
C:\PROGRAM FILES (X86)\MICROSOFT VISUAL STUDIO\2019\COMMUNITY\VC\TOOLS\MSVC\14.25.28610\ATLMFC\INCLUDE\SILVER\TOOLBAR\BTN.PNG
C:\PROGRAM FILES (X86)\MICROSOFT VISUAL STUDIO\2019\COMMUNITY\VC\TOOLS\MSVC\14.25.28610\ATLMFC\INCLUDE\SILVER\TOOLBAR\BORDER.PNG
C:\PROGRAM FILES (X86)\MICROSOFT VISUAL STUDIO\2019\COMMUNITY\VC\TOOLS\MSVC\14.25.28610\ATLMFC\INCLUDE\SILVER\MENUBAR\BTN.PNG
C:\PROGRAM FILES (X86)\MICROSOFT VISUAL STUDIO\2019\COMMUNITY\VC\TOOLS\MSVC\14.25.28610\ATLMFC\INCLUDE\SILVER\POPUPBAR\BORDER.PNG
C:\PROGRAM FILES (X86)\MICROSOFT VISUAL STUDIO\2019\COMMUNITY\VC\TOOLS\MSVC\14.25.28610\ATLMFC\INCLUDE\SILVER\POPUPBAR\RESIZEBAR.PNG
C:\PROGRAM FILES (X86)\MICROSOFT VISUAL STUDIO\2019\COMMUNITY\VC\TOOLS\MSVC\14.25.28610\ATLMFC\INCLUDE\SILVER\POPUPBAR\RESIZEBAR_HV.PNG
C:\PROGRAM FILES (X86)\MICROSOFT VISUAL STUDIO\2019\COMMUNITY\VC\TOOLS\MSVC\14.25.28610\ATLMFC\INCLUDE\SILVER\POPUPBAR\RESIZEBAR_HVT.PNG
C:\PROGRAM FILES (X86)\MICROSOFT VISUAL STUDIO\2019\COMMUNITY\VC\TOOLS\MSVC\14.25.28610\ATLMFC\INCLUDE\SILVER\POPUPBAR\RESIZEBAR_V.PNG
C:\PROGRAM FILES (X86)\MICROSOFT VISUAL STUDIO\2019\COMMUNITY\VC\TOOLS\MSVC\14.25.28610\ATLMFC\INCLUDE\SILVER\POPUPBAR\ITEM_MARKER_R.PNG
C:\PROGRAM FILES (X86)\MICROSOFT VISUAL STUDIO\2019\COMMUNITY\VC\TOOLS\MSVC\14.25.28610\ATLMFC\INCLUDE\SILVER\POPUPBAR\GRIPPER.PNG
C:\PROGRAM FILES (X86)\MICROSOFT VISUAL STUDIO\2019\COMMUNITY\VC\TOOLS\MSVC\14.25.28610\ATLMFC\INCLUDE\SILVER\POPUPBAR\TEAR.PNG
C:\PROGRAM FILES (X86)\MICROSOFT VISUAL STUDIO\2019\COMMUNITY\VC\TOOLS\MSVC\14.25.28610\ATLMFC\INCLUDE\SILVER\TASKPANE\SCROLLBTN.PNG
C:\PROGRAM FILES (X86)\MICROSOFT VISUAL STUDIO\2019\COMMUNITY\VC\TOOLS\MSVC\14.25.28610\ATLMFC\INCLUDE\SILVER\COMBOBOX\BTN.PNG
C:\PROGRAM FILES (X86)\MICROSOFT VISUAL STUDIO\2019\COMMUNITY\VC\TOOLS\MSVC\14.25.28610\ATLMFC\INCLUDE\SILVER\TAB\3D.PNG
C:\PROGRAM FILES (X86)\MICROSOFT VISUAL STUDIO\2019\COMMUNITY\VC\TOOLS\MSVC\14.25.28610\ATLMFC\INCLUDE\SILVER\TAB\FLAT.PNG
C:\PROGRAM FILES (X86)\MICROSOFT VISUAL STUDIO\2019\COMMUNITY\VC\TOOLS\MSVC\14.25.28610\ATLMFC\INCLUDE\SILVER\OUTLOOKWND\BTNPAGE.PNG
C:\PROGRAM FILES (X86)\MICROSOFT VISUAL STUDIO\2019\COMMUNITY\VC\TOOLS\MSVC\14.25.28610\ATLMFC\INCLUDE\SILVER\OUTLOOKWND\BARBACK.PNG
C:\PROGRAM FILES (X86)\MICROSOFT VISUAL STUDIO\2019\COMMUNITY\VC\TOOLS\MSVC\14.25.28610\ATLMFC\INCLUDE\SILVER\RIBBON\CATEGORY_BACK.PNG
C:\PROGRAM FILES (X86)\MICROSOFT VISUAL STUDIO\2019\COMMUNITY\VC\TOOLS\MSVC\14.25.28610\ATLMFC\INCLUDE\SILVER\RIBBON\CATEGORY_TAB.PNG
C:\PROGRAM FILES (X86)\MICROSOFT VISUAL STUDIO\2019\COMMUNITY\VC\TOOLS\MSVC\14.25.28610\ATLMFC\INCLUDE\SILVER\RIBBON\CATEGORY_TAB_SEP.PNG
C:\PROGRAM FILES (X86)\MICROSOFT VISUAL STUDIO\2019\COMMUNITY\VC\TOOLS\MSVC\14.25.28610\ATLMFC\INCLUDE\SILVER\RIBBON\PANEL_BACK_T.PNG
C:\PROGRAM FILES (X86)\MICROSOFT VISUAL STUDIO\2019\COMMUNITY\VC\TOOLS\MSVC\14.25.28610\ATLMFC\INCLUDE\SILVER\RIBBON\PANEL_BACK_B.PNG
C:\PROGRAM FILES (X86)\MICROSOFT VISUAL STUDIO\2019\COMMUNITY\VC\TOOLS\MSVC\14.25.28610\ATLMFC\INCLUDE\SILVER\RIBBON\BUTTONS\GROUP_F.PNG
C:\PROGRAM FILES (X86)\MICROSOFT VISUAL STUDIO\2019\COMMUNITY\VC\TOOLS\MSVC\14.25.28610\ATLMFC\INCLUDE\SILVER\RIBBON\BUTTONS\GROUP_M.PNG
C:\PROGRAM FILES (X86)\MICROSOFT VISUAL STUDIO\2019\COMMUNITY\VC\TOOLS\MSVC\14.25.28610\ATLMFC\INCLUDE\SILVER\RIBBON\BUTTONS\GROUP_L.PNG
C:\PROGRAM FILES (X86)\MICROSOFT VISUAL STUDIO\2019\COMMUNITY\VC\TOOLS\MSVC\14.25.28610\ATLMFC\INCLUDE\SILVER\RIBBON\BUTTONS\GROUP_S.PNG
C:\PROGRAM FILES (X86)\MICROSOFT VISUAL STUDIO\2019\COMMUNITY\VC\TOOLS\MSVC\14.25.28610\ATLMFC\INCLUDE\SILVER\RIBBON\BUTTONS\NORMAL_S.PNG
C:\PROGRAM FILES (X86)\MICROSOFT VISUAL STUDIO\2019\COMMUNITY\VC\TOOLS\MSVC\14.25.28610\ATLMFC\INCLUDE\SILVER\RIBBON\BUTTONS\NORMAL_B.PNG
C:\PROGRAM FILES (X86)\MICROSOFT VISUAL STUDIO\2019\COMMUNITY\VC\TOOLS\MSVC\14.25.28610\ATLMFC\INCLUDE\SILVER\RIBBON\BUTTONS\LAUNCH.PNG
C:\PROGRAM FILES (X86)\MICROSOFT VISUAL STUDIO\2019\COMMUNITY\VC\TOOLS\MSVC\14.25.28610\ATLMFC\INCLUDE\SILVER\RIBBON\BUTTONS\LAUNCH_ICON.PNG
C:\PROGRAM FILES (X86)\MICROSOFT VISUAL STUDIO\2019\COMMUNITY\VC\TOOLS\MSVC\14.25.28610\ATLMFC\INCLUDE\SILVER\RIBBON\BUTTONS\MAIN.PNG
C:\PROGRAM FILES (X86)\MICROSOFT VISUAL STUDIO\2019\COMMUNITY\VC\TOOLS\MSVC\14.25.28610\ATLMFC\INCLUDE\SILVER\RIBBON\BUTTONS\DEFAULT.PNG
C:\PROGRAM FILES (X86)\MICROSOFT VISUAL STUDIO\2019\COMMUNITY\VC\TOOLS\MSVC\14.25.28610\ATLMFC\INCLUDE\SILVER\RIBBON\BUTTONS\DEFAULT_ICON.PNG
C:\PROGRAM FILES (X86)\MICROSOFT VISUAL STUDIO\2019\COMMUNITY\VC\TOOLS\MSVC\14.25.28610\ATLMFC\INCLUDE\SILVER\RIBBON\BUTTONS\DEFAULT_IMAGE.PNG
C:\PROGRAM FILES (X86)\MICROSOFT VISUAL STUDIO\2019\COMMUNITY\VC\TOOLS\MSVC\14.25.28610\ATLMFC\INCLUDE\SILVER\RIBBON\CAPTION_QA.PNG
C:\PROGRAM FILES (X86)\MICROSOFT VISUAL STUDIO\2019\COMMUNITY\VC\TOOLS\MSVC\14.25.28610\ATLMFC\INCLUDE\SILVER\RIBBON\CAPTION_QA_GLASS.PNG
C:\PROGRAM FILES (X86)\MICROSOFT VISUAL STUDIO\2019\COMMUNITY\VC\TOOLS\MSVC\14.25.28610\ATLMFC\INCLUDE\SILVER\RIBBON\BUTTONS\MENU_H_C.PNG
C:\PROGRAM FILES (X86)\MICROSOFT VISUAL STUDIO\2019\COMMUNITY\VC\TOOLS\MSVC\14.25.28610\ATLMFC\INCLUDE\SILVER\RIBBON\BUTTONS\MENU_H_M.PNG
C:\PROGRAM FILES (X86)\MICROSOFT VISUAL STUDIO\2019\COMMUNITY\VC\TOOLS\MSVC\14.25.28610\ATLMFC\INCLUDE\SILVER\RIBBON\BUTTONS\MENU_V_C.PNG
C:\PROGRAM FILES (X86)\MICROSOFT VISUAL STUDIO\2019\COMMUNITY\VC\TOOLS\MSVC\14.25.28610\ATLMFC\INCLUDE\SILVER\RIBBON\BUTTONS\MENU_V_M.PNG
C:\PROGRAM FILES (X86)\MICROSOFT VISUAL STUDIO\2019\COMMUNITY\VC\TOOLS\MSVC\14.25.28610\ATLMFC\INCLUDE\SILVER\RIBBON\BUTTONS\GROUPMENU_F_C.PNG
C:\PROGRAM FILES (X86)\MICROSOFT VISUAL STUDIO\2019\COMMUNITY\VC\TOOLS\MSVC\14.25.28610\ATLMFC\INCLUDE\SILVER\RIBBON\BUTTONS\GROUPMENU_F_M.PNG
C:\PROGRAM FILES (X86)\MICROSOFT VISUAL STUDIO\2019\COMMUNITY\VC\TOOLS\MSVC\14.25.28610\ATLMFC\INCLUDE\SILVER\RIBBON\BUTTONS\GROUPMENU_M_C.PNG
C:\PROGRAM FILES (X86)\MICROSOFT VISUAL STUDIO\2019\COMMUNITY\VC\TOOLS\MSVC\14.25.28610\ATLMFC\INCLUDE\SILVER\RIBBON\BUTTONS\GROUPMENU_M_M.PNG
C:\PROGRAM FILES (X86)\MICROSOFT VISUAL STUDIO\2019\COMMUNITY\VC\TOOLS\MSVC\14.25.28610\ATLMFC\INCLUDE\SILVER\RIBBON\BUTTONS\GROUPMENU_L_C.PNG
C:\PROGRAM FILES (X86)\MICROSOFT VISUAL STUDIO\2019\COMMUNITY\VC\TOOLS\MSVC\14.25.28610\ATLMFC\INCLUDE\SILVER\RIBBON\BUTTONS\GROUPMENU_L_M.PNG
C:\PROGRAM FILES (X86)\MICROSOFT VISUAL STUDIO\2019\COMMUNITY\VC\TOOLS\MSVC\14.25.28610\ATLMFC\INCLUDE\SILVER\RIBBON\BUTTONS\CHECK.PNG
C:\PROGRAM FILES (X86)\MICROSOFT VISUAL STUDIO\2019\COMMUNITY\VC\TOOLS\MSVC\14.25.28610\ATLMFC\INCLUDE\SILVER\RIBBON\SEPARATOR.PNG
C:\PROGRAM FILES (X86)\MICROSOFT VISUAL STUDIO\2019\COMMUNITY\VC\TOOLS\MSVC\14.25.28610\ATLMFC\INCLUDE\SILVER\RIBBON\PANEL_MAIN.PNG
C:\PROGRAM FILES (X86)\MICROSOFT VISUAL STUDIO\2019\COMMUNITY\VC\TOOLS\MSVC\14.25.28610\ATLMFC\INCLUDE\SILVER\RIBBON\PANEL_MAIN_BORDER.PNG
C:\PROGRAM FILES (X86)\MICROSOFT VISUAL STUDIO\2019\COMMUNITY\VC\TOOLS\MSVC\14.25.28610\ATLMFC\INCLUDE\SILVER\RIBBON\BUTTONS\MAIN_PANEL.PNG
C:\PROGRAM FILES (X86)\MICROSOFT VISUAL STUDIO\2019\COMMUNITY\VC\TOOLS\MSVC\14.25.28610\ATLMFC\INCLUDE\SILVER\RIBBON\BUTTONS\DEFAULT_QAT_ICON.PNG
C:\PROGRAM FILES (X86)\MICROSOFT VISUAL STUDIO\2019\COMMUNITY\VC\TOOLS\MSVC\14.25.28610\ATLMFC\INCLUDE\SILVER\RIBBON\PANEL_QAT.PNG
C:\PROGRAM FILES (X86)\MICROSOFT VISUAL STUDIO\2019\COMMUNITY\VC\TOOLS\MSVC\14.25.28610\ATLMFC\INCLUDE\SILVER\RIBBON\BUTTONS\PALETTE_T.PNG
C:\PROGRAM FILES (X86)\MICROSOFT VISUAL STUDIO\2019\COMMUNITY\VC\TOOLS\MSVC\14.25.28610\ATLMFC\INCLUDE\SILVER\RIBBON\BUTTONS\PALETTE_M.PNG
C:\PROGRAM FILES (X86)\MICROSOFT VISUAL STUDIO\2019\COMMUNITY\VC\TOOLS\MSVC\14.25.28610\ATLMFC\INCLUDE\SILVER\RIBBON\BUTTONS\PALETTE_B.PNG
C:\PROGRAM FILES (X86)\MICROSOFT VISUAL STUDIO\2019\COMMUNITY\VC\TOOLS\MSVC\14.25.28610\ATLMFC\INCLUDE\SILVER\RIBBON\BUTTONS\STATUSPANE.PNG
C:\PROGRAM FILES (X86)\MICROSOFT VISUAL STUDIO\2019\COMMUNITY\VC\TOOLS\MSVC\14.25.28610\ATLMFC\INCLUDE\SILVER\RIBBON\SLIDER\THUMB.PNG
C:\PROGRAM FILES (X86)\MICROSOFT VISUAL STUDIO\2019\COMMUNITY\VC\TOOLS\MSVC\14.25.28610\ATLMFC\INCLUDE\SILVER\RIBBON\SLIDER\PLUS.PNG
C:\PROGRAM FILES (X86)\MICROSOFT VISUAL STUDIO\2019\COMMUNITY\VC\TOOLS\MSVC\14.25.28610\ATLMFC\INCLUDE\SILVER\RIBBON\SLIDER\MINUS.PNG
C:\PROGRAM FILES (X86)\MICROSOFT VISUAL STUDIO\2019\COMMUNITY\VC\TOOLS\MSVC\14.25.28610\ATLMFC\INCLUDE\SILVER\RIBBON\PROGRESS\BACK.PNG
C:\PROGRAM FILES (X86)\MICROSOFT VISUAL STUDIO\2019\COMMUNITY\VC\TOOLS\MSVC\14.25.28610\ATLMFC\INCLUDE\SILVER\RIBBON\PROGRESS\NORMAL.PNG
C:\PROGRAM FILES (X86)\MICROSOFT VISUAL STUDIO\2019\COMMUNITY\VC\TOOLS\MSVC\14.25.28610\ATLMFC\INCLUDE\SILVER\RIBBON\PROGRESS\NORMAL_EXT.PNG
C:\PROGRAM FILES (X86)\MICROSOFT VISUAL STUDIO\2019\COMMUNITY\VC\TOOLS\MSVC\14.25.28610\ATLMFC\INCLUDE\SILVER\RIBBON\PROGRESS\INFINITY.PNG
C:\PROGRAM FILES (X86)\MICROSOFT VISUAL STUDIO\2019\COMMUNITY\VC\TOOLS\MSVC\14.25.28610\ATLMFC\INCLUDE\SILVER\RIBBON\BUTTONS\DEFAULT_QAT.PNG
C:\PROGRAM FILES (X86)\MICROSOFT VISUAL STUDIO\2019\COMMUNITY\VC\TOOLS\MSVC\14.25.28610\ATLMFC\INCLUDE\SILVER\RIBBON\BORDER_QAT.PNG
C:\PROGRAM FILES (X86)\MICROSOFT VISUAL STUDIO\2019\COMMUNITY\VC\TOOLS\MSVC\14.25.28610\ATLMFC\INCLUDE\SILVER\RIBBON\BORDER_FLOATY.PNG
C:\PROGRAM FILES (X86)\MICROSOFT VISUAL STUDIO\2019\COMMUNITY\VC\TOOLS\MSVC\14.25.28610\ATLMFC\INCLUDE\SILVER\RIBBON\KEYTIP.PNG
C:\PROGRAM FILES (X86)\MICROSOFT VISUAL STUDIO\2019\COMMUNITY\VC\TOOLS\MSVC\14.25.28610\ATLMFC\INCLUDE\SILVER\RIBBON\BUTTONS\PAGE_L.PNG
C:\PROGRAM FILES (X86)\MICROSOFT VISUAL STUDIO\2019\COMMUNITY\VC\TOOLS\MSVC\14.25.28610\ATLMFC\INCLUDE\SILVER\RIBBON\BUTTONS\PAGE_R.PNG
C:\PROGRAM FILES (X86)\MICROSOFT VISUAL STUDIO\2019\COMMUNITY\VC\TOOLS\MSVC\14.25.28610\ATLMFC\INCLUDE\SILVER\RIBBON\CATEGORY_CONTEXT\PANEL_BACK_B.PNG
C:\PROGRAM FILES (X86)\MICROSOFT VISUAL STUDIO\2019\COMMUNITY\VC\TOOLS\MSVC\14.25.28610\ATLMFC\INCLUDE\SILVER\RIBBON\CATEGORY_CONTEXT\PANEL_BACK_T.PNG
C:\PROGRAM FILES (X86)\MICROSOFT VISUAL STUDIO\2019\COMMUNITY\VC\TOOLS\MSVC\14.25.28610\ATLMFC\INCLUDE\SILVER\RIBBON\CATEGORY_CONTEXT\SEPARATOR.PNG
C:\PROGRAM FILES (X86)\MICROSOFT VISUAL STUDIO\2019\COMMUNITY\VC\TOOLS\MSVC\14.25.28610\ATLMFC\INCLUDE\SILVER\RIBBON\CATEGORY_CONTEXT\RED\DEFAULT.PNG
C:\PROGRAM FILES (X86)\MICROSOFT VISUAL STUDIO\2019\COMMUNITY\VC\TOOLS\MSVC\14.25.28610\ATLMFC\INCLUDE\SILVER\RIBBON\CATEGORY_CONTEXT\RED\TAB.PNG
C:\PROGRAM FILES (X86)\MICROSOFT VISUAL STUDIO\2019\COMMUNITY\VC\TOOLS\MSVC\14.25.28610\ATLMFC\INCLUDE\SILVER\RIBBON\CATEGORY_CONTEXT\RED\CAPTION.PNG
C:\PROGRAM FILES (X86)\MICROSOFT VISUAL STUDIO\2019\COMMUNITY\VC\TOOLS\MSVC\14.25.28610\ATLMFC\INCLUDE\SILVER\RIBBON\CATEGORY_CONTEXT\RED\BACK.PNG
C:\PROGRAM FILES (X86)\MICROSOFT VISUAL STUDIO\2019\COMMUNITY\VC\TOOLS\MSVC\14.25.28610\ATLMFC\INCLUDE\SILVER\RIBBON\CATEGORY_CONTEXT\ORANGE\DEFAULT.PNG
C:\PROGRAM FILES (X86)\MICROSOFT VISUAL STUDIO\2019\COMMUNITY\VC\TOOLS\MSVC\14.25.28610\ATLMFC\INCLUDE\SILVER\RIBBON\CATEGORY_CONTEXT\ORANGE\TAB.PNG
C:\PROGRAM FILES (X86)\MICROSOFT VISUAL STUDIO\2019\COMMUNITY\VC\TOOLS\MSVC\14.25.28610\ATLMFC\INCLUDE\SILVER\RIBBON\CATEGORY_CONTEXT\ORANGE\CAPTION.PNG
C:\PROGRAM FILES (X86)\MICROSOFT VISUAL STUDIO\2019\COMMUNITY\VC\TOOLS\MSVC\14.25.28610\ATLMFC\INCLUDE\SILVER\RIBBON\CATEGORY_CONTEXT\ORANGE\BACK.PNG
C:\PROGRAM FILES (X86)\MICROSOFT VISUAL STUDIO\2019\COMMUNITY\VC\TOOLS\MSVC\14.25.28610\ATLMFC\INCLUDE\SILVER\RIBBON\CATEGORY_CONTEXT\YELLOW\DEFAULT.PNG
C:\PROGRAM FILES (X86)\MICROSOFT VISUAL STUDIO\2019\COMMUNITY\VC\TOOLS\MSVC\14.25.28610\ATLMFC\INCLUDE\SILVER\RIBBON\CATEGORY_CONTEXT\YELLOW\TAB.PNG
C:\PROGRAM FILES (X86)\MICROSOFT VISUAL STUDIO\2019\COMMUNITY\VC\TOOLS\MSVC\14.25.28610\ATLMFC\INCLUDE\SILVER\RIBBON\CATEGORY_CONTEXT\YELLOW\CAPTION.PNG
C:\PROGRAM FILES (X86)\MICROSOFT VISUAL STUDIO\2019\COMMUNITY\VC\TOOLS\MSVC\14.25.28610\ATLMFC\INCLUDE\SILVER\RIBBON\CATEGORY_CONTEXT\YELLOW\BACK.PNG
C:\PROGRAM FILES (X86)\MICROSOFT VISUAL STUDIO\2019\COMMUNITY\VC\TOOLS\MSVC\14.25.28610\ATLMFC\INCLUDE\SILVER\RIBBON\CATEGORY_CONTEXT\GREEN\DEFAULT.PNG
C:\PROGRAM FILES (X86)\MICROSOFT VISUAL STUDIO\2019\COMMUNITY\VC\TOOLS\MSVC\14.25.28610\ATLMFC\INCLUDE\SILVER\RIBBON\CATEGORY_CONTEXT\GREEN\TAB.PNG
C:\PROGRAM FILES (X86)\MICROSOFT VISUAL STUDIO\2019\COMMUNITY\VC\TOOLS\MSVC\14.25.28610\ATLMFC\INCLUDE\SILVER\RIBBON\CATEGORY_CONTEXT\GREEN\CAPTION.PNG
C:\PROGRAM FILES (X86)\MICROSOFT VISUAL STUDIO\2019\COMMUNITY\VC\TOOLS\MSVC\14.25.28610\ATLMFC\INCLUDE\SILVER\RIBBON\CATEGORY_CONTEXT\GREEN\BACK.PNG
C:\PROGRAM FILES (X86)\MICROSOFT VISUAL STUDIO\2019\COMMUNITY\VC\TOOLS\MSVC\14.25.28610\ATLMFC\INCLUDE\SILVER\RIBBON\CATEGORY_CONTEXT\BLUE\DEFAULT.PNG
C:\PROGRAM FILES (X86)\MICROSOFT VISUAL STUDIO\2019\COMMUNITY\VC\TOOLS\MSVC\14.25.28610\ATLMFC\INCLUDE\SILVER\RIBBON\CATEGORY_CONTEXT\BLUE\TAB.PNG
C:\PROGRAM FILES (X86)\MICROSOFT VISUAL STUDIO\2019\COMMUNITY\VC\TOOLS\MSVC\14.25.28610\ATLMFC\INCLUDE\SILVER\RIBBON\CATEGORY_CONTEXT\BLUE\CAPTION.PNG
C:\PROGRAM FILES (X86)\MICROSOFT VISUAL STUDIO\2019\COMMUNITY\VC\TOOLS\MSVC\14.25.28610\ATLMFC\INCLUDE\SILVER\RIBBON\CATEGORY_CONTEXT\BLUE\BACK.PNG
C:\PROGRAM FILES (X86)\MICROSOFT VISUAL STUDIO\2019\COMMUNITY\VC\TOOLS\MSVC\14.25.28610\ATLMFC\INCLUDE\SILVER\RIBBON\CATEGORY_CONTEXT\INDIGO\DEFAULT.PNG
C:\PROGRAM FILES (X86)\MICROSOFT VISUAL STUDIO\2019\COMMUNITY\VC\TOOLS\MSVC\14.25.28610\ATLMFC\INCLUDE\SILVER\RIBBON\CATEGORY_CONTEXT\INDIGO\TAB.PNG
C:\PROGRAM FILES (X86)\MICROSOFT VISUAL STUDIO\2019\COMMUNITY\VC\TOOLS\MSVC\14.25.28610\ATLMFC\INCLUDE\SILVER\RIBBON\CATEGORY_CONTEXT\INDIGO\CAPTION.PNG
C:\PROGRAM FILES (X86)\MICROSOFT VISUAL STUDIO\2019\COMMUNITY\VC\TOOLS\MSVC\14.25.28610\ATLMFC\INCLUDE\SILVER\RIBBON\CATEGORY_CONTEXT\INDIGO\BACK.PNG
C:\PROGRAM FILES (X86)\MICROSOFT VISUAL STUDIO\2019\COMMUNITY\VC\TOOLS\MSVC\14.25.28610\ATLMFC\INCLUDE\SILVER\RIBBON\CATEGORY_CONTEXT\VIOLET\DEFAULT.PNG
C:\PROGRAM FILES (X86)\MICROSOFT VISUAL STUDIO\2019\COMMUNITY\VC\TOOLS\MSVC\14.25.28610\ATLMFC\INCLUDE\SILVER\RIBBON\CATEGORY_CONTEXT\VIOLET\TAB.PNG
C:\PROGRAM FILES (X86)\MICROSOFT VISUAL STUDIO\2019\COMMUNITY\VC\TOOLS\MSVC\14.25.28610\ATLMFC\INCLUDE\SILVER\RIBBON\CATEGORY_CONTEXT\VIOLET\CAPTION.PNG
C:\PROGRAM FILES (X86)\MICROSOFT VISUAL STUDIO\2019\COMMUNITY\VC\TOOLS\MSVC\14.25.28610\ATLMFC\INCLUDE\SILVER\RIBBON\CATEGORY_CONTEXT\VIOLET\BACK.PNG
C:\PROGRAM FILES (X86)\MICROSOFT VISUAL STUDIO\2019\COMMUNITY\VC\TOOLS\MSVC\14.25.28610\ATLMFC\INCLUDE\WINDOWS7\STYLE.XML
C:\PROGRAM FILES (X86)\MICROSOFT VISUAL STUDIO\2019\COMMUNITY\VC\TOOLS\MSVC\14.25.28610\ATLMFC\INCLUDE\WINDOWS7\COMBOBOX\BTN.PNG
C:\PROGRAM FILES (X86)\MICROSOFT VISUAL STUDIO\2019\COMMUNITY\VC\TOOLS\MSVC\14.25.28610\ATLMFC\INCLUDE\WINDOWS7\RIBBON\CATEGORY_BACK.PNG
C:\PROGRAM FILES (X86)\MICROSOFT VISUAL STUDIO\2019\COMMUNITY\VC\TOOLS\MSVC\14.25.28610\ATLMFC\INCLUDE\WINDOWS7\RIBBON\CATEGORY_TAB.PNG
C:\PROGRAM FILES (X86)\MICROSOFT VISUAL STUDIO\2019\COMMUNITY\VC\TOOLS\MSVC\14.25.28610\ATLMFC\INCLUDE\WINDOWS7\RIBBON\CATEGORY_TAB_SEP.PNG
C:\PROGRAM FILES (X86)\MICROSOFT VISUAL STUDIO\2019\COMMUNITY\VC\TOOLS\MSVC\14.25.28610\ATLMFC\INCLUDE\WINDOWS7\RIBBON\PANEL_BACK.PNG
C:\PROGRAM FILES (X86)\MICROSOFT VISUAL STUDIO\2019\COMMUNITY\VC\TOOLS\MSVC\14.25.28610\ATLMFC\INCLUDE\WINDOWS7\RIBBON\PANEL_BACK_SEP.PNG
C:\PROGRAM FILES (X86)\MICROSOFT VISUAL STUDIO\2019\COMMUNITY\VC\TOOLS\MSVC\14.25.28610\ATLMFC\INCLUDE\WINDOWS7\POPUPBAR\MENUHIGHLIGHT.PNG
C:\PROGRAM FILES (X86)\MICROSOFT VISUAL STUDIO\2019\COMMUNITY\VC\TOOLS\MSVC\14.25.28610\ATLMFC\INCLUDE\WINDOWS7\POPUPBAR\MENUHIGHLIGHTDISABLED.PNG
C:\PROGRAM FILES (X86)\MICROSOFT VISUAL STUDIO\2019\COMMUNITY\VC\TOOLS\MSVC\14.25.28610\ATLMFC\INCLUDE\WINDOWS7\POPUPBAR\ITEM_BACK.PNG
C:\PROGRAM FILES (X86)\MICROSOFT VISUAL STUDIO\2019\COMMUNITY\VC\TOOLS\MSVC\14.25.28610\ATLMFC\INCLUDE\WINDOWS7\POPUPBAR\ITEM_MARKER_C.PNG
C:\PROGRAM FILES (X86)\MICROSOFT VISUAL STUDIO\2019\COMMUNITY\VC\TOOLS\MSVC\14.25.28610\ATLMFC\INCLUDE\WINDOWS7\POPUPBAR\ITEM_MARKER_R.PNG
C:\PROGRAM FILES (X86)\MICROSOFT VISUAL STUDIO\2019\COMMUNITY\VC\TOOLS\MSVC\14.25.28610\ATLMFC\INCLUDE\WINDOWS7\RIBBON\BUTTONS\GROUP_F.PNG
C:\PROGRAM FILES (X86)\MICROSOFT VISUAL STUDIO\2019\COMMUNITY\VC\TOOLS\MSVC\14.25.28610\ATLMFC\INCLUDE\WINDOWS7\RIBBON\BUTTONS\GROUP_M.PNG
C:\PROGRAM FILES (X86)\MICROSOFT VISUAL STUDIO\2019\COMMUNITY\VC\TOOLS\MSVC\14.25.28610\ATLMFC\INCLUDE\WINDOWS7\RIBBON\BUTTONS\GROUP_L.PNG
C:\PROGRAM FILES (X86)\MICROSOFT VISUAL STUDIO\2019\COMMUNITY\VC\TOOLS\MSVC\14.25.28610\ATLMFC\INCLUDE\WINDOWS7\RIBBON\BUTTONS\GROUP_S.PNG
C:\PROGRAM FILES (X86)\MICROSOFT VISUAL STUDIO\2019\COMMUNITY\VC\TOOLS\MSVC\14.25.28610\ATLMFC\INCLUDE\WINDOWS7\RIBBON\BUTTONS\NORMAL_S.PNG
C:\PROGRAM FILES (X86)\MICROSOFT VISUAL STUDIO\2019\COMMUNITY\VC\TOOLS\MSVC\14.25.28610\ATLMFC\INCLUDE\WINDOWS7\RIBBON\BUTTONS\NORMAL_B.PNG
C:\PROGRAM FILES (X86)\MICROSOFT VISUAL STUDIO\2019\COMMUNITY\VC\TOOLS\MSVC\14.25.28610\ATLMFC\INCLUDE\WINDOWS7\RIBBON\BUTTONS\LAUNCH.PNG
C:\PROGRAM FILES (X86)\MICROSOFT VISUAL STUDIO\2019\COMMUNITY\VC\TOOLS\MSVC\14.25.28610\ATLMFC\INCLUDE\WINDOWS7\RIBBON\BUTTONS\LAUNCH_ICON.PNG
C:\PROGRAM FILES (X86)\MICROSOFT VISUAL STUDIO\2019\COMMUNITY\VC\TOOLS\MSVC\14.25.28610\ATLMFC\INCLUDE\WINDOWS7\RIBBON\PANEL_MAIN.PNG
C:\PROGRAM FILES (X86)\MICROSOFT VISUAL STUDIO\2019\COMMUNITY\VC\TOOLS\MSVC\14.25.28610\ATLMFC\INCLUDE\WINDOWS7\RIBBON\BUTTONS\MAIN.PNG
C:\PROGRAM FILES (X86)\MICROSOFT VISUAL STUDIO\2019\COMMUNITY\VC\TOOLS\MSVC\14.25.28610\ATLMFC\INCLUDE\WINDOWS7\RIBBON\BUTTONS\DEFAULT.PNG
C:\PROGRAM FILES (X86)\MICROSOFT VISUAL STUDIO\2019\COMMUNITY\VC\TOOLS\MSVC\14.25.28610\ATLMFC\INCLUDE\WINDOWS7\RIBBON\BUTTONS\DEFAULT_ICON.PNG
C:\PROGRAM FILES (X86)\MICROSOFT VISUAL STUDIO\2019\COMMUNITY\VC\TOOLS\MSVC\14.25.28610\ATLMFC\INCLUDE\WINDOWS7\RIBBON\BUTTONS\DEFAULT_IMAGE.PNG
C:\PROGRAM FILES (X86)\MICROSOFT VISUAL STUDIO\2019\COMMUNITY\VC\TOOLS\MSVC\14.25.28610\ATLMFC\INCLUDE\WINDOWS7\RIBBON\BUTTONS\MENU_H_C.PNG
C:\PROGRAM FILES (X86)\MICROSOFT VISUAL STUDIO\2019\COMMUNITY\VC\TOOLS\MSVC\14.25.28610\ATLMFC\INCLUDE\WINDOWS7\RIBBON\BUTTONS\MENU_H_M.PNG
C:\PROGRAM FILES (X86)\MICROSOFT VISUAL STUDIO\2019\COMMUNITY\VC\TOOLS\MSVC\14.25.28610\ATLMFC\INCLUDE\WINDOWS7\RIBBON\BUTTONS\MENU_V_C.PNG
C:\PROGRAM FILES (X86)\MICROSOFT VISUAL STUDIO\2019\COMMUNITY\VC\TOOLS\MSVC\14.25.28610\ATLMFC\INCLUDE\WINDOWS7\RIBBON\BUTTONS\MENU_V_M.PNG
C:\PROGRAM FILES (X86)\MICROSOFT VISUAL STUDIO\2019\COMMUNITY\VC\TOOLS\MSVC\14.25.28610\ATLMFC\INCLUDE\WINDOWS7\RIBBON\BUTTONS\GROUPMENU_F_C.PNG
C:\PROGRAM FILES (X86)\MICROSOFT VISUAL STUDIO\2019\COMMUNITY\VC\TOOLS\MSVC\14.25.28610\ATLMFC\INCLUDE\WINDOWS7\RIBBON\BUTTONS\GROUPMENU_F_M.PNG
C:\PROGRAM FILES (X86)\MICROSOFT VISUAL STUDIO\2019\COMMUNITY\VC\TOOLS\MSVC\14.25.28610\ATLMFC\INCLUDE\WINDOWS7\RIBBON\BUTTONS\GROUPMENU_M_C.PNG
C:\PROGRAM FILES (X86)\MICROSOFT VISUAL STUDIO\2019\COMMUNITY\VC\TOOLS\MSVC\14.25.28610\ATLMFC\INCLUDE\WINDOWS7\RIBBON\BUTTONS\GROUPMENU_M_M.PNG
C:\PROGRAM FILES (X86)\MICROSOFT VISUAL STUDIO\2019\COMMUNITY\VC\TOOLS\MSVC\14.25.28610\ATLMFC\INCLUDE\WINDOWS7\RIBBON\BUTTONS\GROUPMENU_L_C.PNG
C:\PROGRAM FILES (X86)\MICROSOFT VISUAL STUDIO\2019\COMMUNITY\VC\TOOLS\MSVC\14.25.28610\ATLMFC\INCLUDE\WINDOWS7\RIBBON\BUTTONS\GROUPMENU_L_M.PNG
C:\PROGRAM FILES (X86)\MICROSOFT VISUAL STUDIO\2019\COMMUNITY\VC\TOOLS\MSVC\14.25.28610\ATLMFC\INCLUDE\WINDOWS7\RIBBON\BUTTONS\PALETTE_T.PNG
C:\PROGRAM FILES (X86)\MICROSOFT VISUAL STUDIO\2019\COMMUNITY\VC\TOOLS\MSVC\14.25.28610\ATLMFC\INCLUDE\WINDOWS7\RIBBON\BUTTONS\PALETTE_M.PNG
C:\PROGRAM FILES (X86)\MICROSOFT VISUAL STUDIO\2019\COMMUNITY\VC\TOOLS\MSVC\14.25.28610\ATLMFC\INCLUDE\WINDOWS7\RIBBON\BUTTONS\PALETTE_B.PNG
C:\PROGRAM FILES (X86)\MICROSOFT VISUAL STUDIO\2019\COMMUNITY\VC\TOOLS\MSVC\14.25.28610\ATLMFC\INCLUDE\WINDOWS7\RIBBON\BUTTONS\STATUSPANE.PNG
C:\PROGRAM FILES (X86)\MICROSOFT VISUAL STUDIO\2019\COMMUNITY\VC\TOOLS\MSVC\14.25.28610\ATLMFC\INCLUDE\WINDOWS7\RIBBON\SLIDER\PLUS.PNG
C:\PROGRAM FILES (X86)\MICROSOFT VISUAL STUDIO\2019\COMMUNITY\VC\TOOLS\MSVC\14.25.28610\ATLMFC\INCLUDE\WINDOWS7\RIBBON\SLIDER\MINUS.PNG
C:\PROGRAM FILES (X86)\MICROSOFT VISUAL STUDIO\2019\COMMUNITY\VC\TOOLS\MSVC\14.25.28610\ATLMFC\INCLUDE\WINDOWS7\RIBBON\BUTTONS\DEFAULT_QAT.PNG
C:\PROGRAM FILES (X86)\MICROSOFT VISUAL STUDIO\2019\COMMUNITY\VC\TOOLS\MSVC\14.25.28610\ATLMFC\INCLUDE\WINDOWS7\RIBBON\BUTTONS\PAGE_L.PNG
C:\PROGRAM FILES (X86)\MICROSOFT VISUAL STUDIO\2019\COMMUNITY\VC\TOOLS\MSVC\14.25.28610\ATLMFC\INCLUDE\WINDOWS7\RIBBON\BUTTONS\PAGE_R.PNG
C:\PROGRAM FILES (X86)\MICROSOFT VISUAL STUDIO\2019\COMMUNITY\VC\TOOLS\MSVC\14.25.28610\ATLMFC\INCLUDE\WINDOWS7\RIBBON\BORDER_QAT.PNG
C:\PROGRAM FILES (X86)\MICROSOFT VISUAL STUDIO\2019\COMMUNITY\VC\TOOLS\MSVC\14.25.28610\ATLMFC\INCLUDE\WINDOWS7\RIBBON\BORDER_PANEL.PNG
C:\PROGRAM FILES (X86)\MICROSOFT VISUAL STUDIO\2019\COMMUNITY\VC\TOOLS\MSVC\14.25.28610\ATLMFC\INCLUDE\WINDOWS7\RIBBON\CAPTION_QA.PNG
C:\PROGRAM FILES (X86)\MICROSOFT VISUAL STUDIO\2019\COMMUNITY\VC\TOOLS\MSVC\14.25.28610\ATLMFC\INCLUDE\WINDOWS7\RIBBON\CATEGORY_CONTEXT\SEPARATOR.PNG
C:\PROGRAM FILES (X86)\MICROSOFT VISUAL STUDIO\2019\COMMUNITY\VC\TOOLS\MSVC\14.25.28610\ATLMFC\INCLUDE\WINDOWS7\RIBBON\CATEGORY_CONTEXT\RED\TAB.PNG
C:\PROGRAM FILES (X86)\MICROSOFT VISUAL STUDIO\2019\COMMUNITY\VC\TOOLS\MSVC\14.25.28610\ATLMFC\INCLUDE\WINDOWS7\RIBBON\CATEGORY_CONTEXT\RED\CAPTION.PNG
C:\PROGRAM FILES (X86)\MICROSOFT VISUAL STUDIO\2019\COMMUNITY\VC\TOOLS\MSVC\14.25.28610\ATLMFC\INCLUDE\WINDOWS7\RIBBON\CATEGORY_CONTEXT\RED\BACK.PNG
C:\PROGRAM FILES (X86)\MICROSOFT VISUAL STUDIO\2019\COMMUNITY\VC\TOOLS\MSVC\14.25.28610\ATLMFC\INCLUDE\WINDOWS7\RIBBON\CATEGORY_CONTEXT\ORANGE\TAB.PNG
C:\PROGRAM FILES (X86)\MICROSOFT VISUAL STUDIO\2019\COMMUNITY\VC\TOOLS\MSVC\14.25.28610\ATLMFC\INCLUDE\WINDOWS7\RIBBON\CATEGORY_CONTEXT\ORANGE\CAPTION.PNG
C:\PROGRAM FILES (X86)\MICROSOFT VISUAL STUDIO\2019\COMMUNITY\VC\TOOLS\MSVC\14.25.28610\ATLMFC\INCLUDE\WINDOWS7\RIBBON\CATEGORY_CONTEXT\ORANGE\BACK.PNG
C:\PROGRAM FILES (X86)\MICROSOFT VISUAL STUDIO\2019\COMMUNITY\VC\TOOLS\MSVC\14.25.28610\ATLMFC\INCLUDE\WINDOWS7\RIBBON\CATEGORY_CONTEXT\YELLOW\TAB.PNG
C:\PROGRAM FILES (X86)\MICROSOFT VISUAL STUDIO\2019\COMMUNITY\VC\TOOLS\MSVC\14.25.28610\ATLMFC\INCLUDE\WINDOWS7\RIBBON\CATEGORY_CONTEXT\YELLOW\CAPTION.PNG
C:\PROGRAM FILES (X86)\MICROSOFT VISUAL STUDIO\2019\COMMUNITY\VC\TOOLS\MSVC\14.25.28610\ATLMFC\INCLUDE\WINDOWS7\RIBBON\CATEGORY_CONTEXT\YELLOW\BACK.PNG
C:\PROGRAM FILES (X86)\MICROSOFT VISUAL STUDIO\2019\COMMUNITY\VC\TOOLS\MSVC\14.25.28610\ATLMFC\INCLUDE\WINDOWS7\RIBBON\CATEGORY_CONTEXT\GREEN\TAB.PNG
C:\PROGRAM FILES (X86)\MICROSOFT VISUAL STUDIO\2019\COMMUNITY\VC\TOOLS\MSVC\14.25.28610\ATLMFC\INCLUDE\WINDOWS7\RIBBON\CATEGORY_CONTEXT\GREEN\CAPTION.PNG
C:\PROGRAM FILES (X86)\MICROSOFT VISUAL STUDIO\2019\COMMUNITY\VC\TOOLS\MSVC\14.25.28610\ATLMFC\INCLUDE\WINDOWS7\RIBBON\CATEGORY_CONTEXT\GREEN\BACK.PNG
C:\PROGRAM FILES (X86)\MICROSOFT VISUAL STUDIO\2019\COMMUNITY\VC\TOOLS\MSVC\14.25.28610\ATLMFC\INCLUDE\WINDOWS7\RIBBON\CATEGORY_CONTEXT\BLUE\TAB.PNG
C:\PROGRAM FILES (X86)\MICROSOFT VISUAL STUDIO\2019\COMMUNITY\VC\TOOLS\MSVC\14.25.28610\ATLMFC\INCLUDE\WINDOWS7\RIBBON\CATEGORY_CONTEXT\BLUE\CAPTION.PNG
C:\PROGRAM FILES (X86)\MICROSOFT VISUAL STUDIO\2019\COMMUNITY\VC\TOOLS\MSVC\14.25.28610\ATLMFC\INCLUDE\WINDOWS7\RIBBON\CATEGORY_CONTEXT\BLUE\BACK.PNG
C:\PROGRAM FILES (X86)\MICROSOFT VISUAL STUDIO\2019\COMMUNITY\VC\TOOLS\MSVC\14.25.28610\ATLMFC\INCLUDE\WINDOWS7\RIBBON\CATEGORY_CONTEXT\INDIGO\TAB.PNG
C:\PROGRAM FILES (X86)\MICROSOFT VISUAL STUDIO\2019\COMMUNITY\VC\TOOLS\MSVC\14.25.28610\ATLMFC\INCLUDE\WINDOWS7\RIBBON\CATEGORY_CONTEXT\INDIGO\CAPTION.PNG
C:\PROGRAM FILES (X86)\MICROSOFT VISUAL STUDIO\2019\COMMUNITY\VC\TOOLS\MSVC\14.25.28610\ATLMFC\INCLUDE\WINDOWS7\RIBBON\CATEGORY_CONTEXT\INDIGO\BACK.PNG
C:\PROGRAM FILES (X86)\MICROSOFT VISUAL STUDIO\2019\COMMUNITY\VC\TOOLS\MSVC\14.25.28610\ATLMFC\INCLUDE\WINDOWS7\RIBBON\CATEGORY_CONTEXT\VIOLET\TAB.PNG
C:\PROGRAM FILES (X86)\MICROSOFT VISUAL STUDIO\2019\COMMUNITY\VC\TOOLS\MSVC\14.25.28610\ATLMFC\INCLUDE\WINDOWS7\RIBBON\CATEGORY_CONTEXT\VIOLET\CAPTION.PNG
C:\PROGRAM FILES (X86)\MICROSOFT VISUAL STUDIO\2019\COMMUNITY\VC\TOOLS\MSVC\14.25.28610\ATLMFC\INCLUDE\WINDOWS7\RIBBON\CATEGORY_CONTEXT\VIOLET\BACK.PNG
C:\PROGRAM FILES (X86)\MICROSOFT VISUAL STUDIO\2019\COMMUNITY\VC\TOOLS\MSVC\14.25.28610\ATLMFC\INCLUDE\RES\HELP-PRO.BMP
C:\PROGRAM FILES (X86)\MICROSOFT VISUAL STUDIO\2019\COMMUNITY\VC\TOOLS\MSVC\14.25.28610\ATLMFC\INCLUDE\RES\MENUIMG-PRO.BMP
C:\PROGRAM FILES (X86)\MICROSOFT VISUAL STUDIO\2019\COMMUNITY\VC\TOOLS\MSVC\14.25.28610\ATLMFC\INCLUDE\RES\PALETTE-PRO.BMP
C:\PROGRAM FILES (X86)\MICROSOFT VISUAL STUDIO\2019\COMMUNITY\VC\TOOLS\MSVC\14.25.28610\ATLMFC\INCLUDE\RES\PALETTE-PRO32.BMP
C:\PROGRAM FILES (X86)\MICROSOFT VISUAL STUDIO\2019\COMMUNITY\VC\TOOLS\MSVC\14.25.28610\ATLMFC\INCLUDE\RES\NEW-PRO.BMP
C:\PROGRAM FILES (X86)\MICROSOFT VISUAL STUDIO\2019\COMMUNITY\VC\TOOLS\MSVC\14.25.28610\ATLMFC\INCLUDE\RES\NEW-PRO32.BMP
C:\PROGRAM FILES (X86)\MICROSOFT VISUAL STUDIO\2019\COMMUNITY\VC\TOOLS\MSVC\14.25.28610\ATLMFC\INCLUDE\RES\DELETE-PRO.BMP
C:\PROGRAM FILES (X86)\MICROSOFT VISUAL STUDIO\2019\COMMUNITY\VC\TOOLS\MSVC\14.25.28610\ATLMFC\INCLUDE\RES\DELETE-PRO32.BMP
C:\PROGRAM FILES (X86)\MICROSOFT VISUAL STUDIO\2019\COMMUNITY\VC\TOOLS\MSVC\14.25.28610\ATLMFC\INCLUDE\RES\UP-PRO.BMP
C:\PROGRAM FILES (X86)\MICROSOFT VISUAL STUDIO\2019\COMMUNITY\VC\TOOLS\MSVC\14.25.28610\ATLMFC\INCLUDE\RES\UP-PRO32.BMP
C:\PROGRAM FILES (X86)\MICROSOFT VISUAL STUDIO\2019\COMMUNITY\VC\TOOLS\MSVC\14.25.28610\ATLMFC\INCLUDE\RES\DOWN-PRO.BMP
C:\PROGRAM FILES (X86)\MICROSOFT VISUAL STUDIO\2019\COMMUNITY\VC\TOOLS\MSVC\14.25.28610\ATLMFC\INCLUDE\RES\DOWN-PRO32.BMP
C:\PROGRAM FILES (X86)\MICROSOFT VISUAL STUDIO\2019\COMMUNITY\VC\TOOLS\MSVC\14.25.28610\ATLMFC\INCLUDE\RES\PRINTPREVIEW-PRO.BMP
C:\PROGRAM FILES (X86)\MICROSOFT VISUAL STUDIO\2019\COMMUNITY\VC\TOOLS\MSVC\14.25.28610\ATLMFC\INCLUDE\RES\PRINTPREVIEW-PRO32.BMP
C:\PROGRAM FILES (X86)\MICROSOFT VISUAL STUDIO\2019\COMMUNITY\VC\TOOLS\MSVC\14.25.28610\ATLMFC\INCLUDE\RES\PRINT-PRO.BMP
C:\PROGRAM FILES (X86)\MICROSOFT VISUAL STUDIO\2019\COMMUNITY\VC\TOOLS\MSVC\14.25.28610\ATLMFC\INCLUDE\RES\PRINT-PRO32.BMP
C:\PROGRAM FILES (X86)\MICROSOFT VISUAL STUDIO\2019\COMMUNITY\VC\TOOLS\MSVC\14.25.28610\ATLMFC\INCLUDE\RES\COPY-PRO.BMP
C:\PROGRAM FILES (X86)\MICROSOFT VISUAL STUDIO\2019\COMMUNITY\VC\TOOLS\MSVC\14.25.28610\ATLMFC\INCLUDE\RES\COPY-PRO32.BMP
C:\PROGRAM FILES (X86)\MICROSOFT VISUAL STUDIO\2019\COMMUNITY\VC\TOOLS\MSVC\14.25.28610\ATLMFC\INCLUDE\RES\FONT-PRO.BMP
C:\PROGRAM FILES (X86)\MICROSOFT VISUAL STUDIO\2019\COMMUNITY\VC\TOOLS\MSVC\14.25.28610\ATLMFC\INCLUDE\RES\TASKPANE.BMP
C:\PROGRAM FILES (X86)\MICROSOFT VISUAL STUDIO\2019\COMMUNITY\VC\TOOLS\MSVC\14.25.28610\ATLMFC\INCLUDE\RES\TASKPANE32.BMP
C:\PROGRAM FILES (X86)\MICROSOFT VISUAL STUDIO\2019\COMMUNITY\VC\TOOLS\MSVC\14.25.28610\ATLMFC\INCLUDE\RES\BROWSE.BMP
C:\PROGRAM FILES (X86)\MICROSOFT VISUAL STUDIO\2019\COMMUNITY\VC\TOOLS\MSVC\14.25.28610\ATLMFC\INCLUDE\RES\BROWSE32.BMP
C:\PROGRAM FILES (X86)\MICROSOFT VISUAL STUDIO\2019\COMMUNITY\VC\TOOLS\MSVC\14.25.28610\ATLMFC\INCLUDE\RES\SDTOP.BMP
C:\PROGRAM FILES (X86)\MICROSOFT VISUAL STUDIO\2019\COMMUNITY\VC\TOOLS\MSVC\14.25.28610\ATLMFC\INCLUDE\RES\SDBOTTOM.BMP
C:\PROGRAM FILES (X86)\MICROSOFT VISUAL STUDIO\2019\COMMUNITY\VC\TOOLS\MSVC\14.25.28610\ATLMFC\INCLUDE\RES\SDLEFT.BMP
C:\PROGRAM FILES (X86)\MICROSOFT VISUAL STUDIO\2019\COMMUNITY\VC\TOOLS\MSVC\14.25.28610\ATLMFC\INCLUDE\RES\SDMIDDLE.BMP
C:\PROGRAM FILES (X86)\MICROSOFT VISUAL STUDIO\2019\COMMUNITY\VC\TOOLS\MSVC\14.25.28610\ATLMFC\INCLUDE\RES\SDRIGHT.BMP
C:\PROGRAM FILES (X86)\MICROSOFT VISUAL STUDIO\2019\COMMUNITY\VC\TOOLS\MSVC\14.25.28610\ATLMFC\INCLUDE\RES\PICKER.BMP
C:\PROGRAM FILES (X86)\MICROSOFT VISUAL STUDIO\2019\COMMUNITY\VC\TOOLS\MSVC\14.25.28610\ATLMFC\INCLUDE\RES\HELP-PRO32.BMP
C:\PROGRAM FILES (X86)\MICROSOFT VISUAL STUDIO\2019\COMMUNITY\VC\TOOLS\MSVC\14.25.28610\ATLMFC\INCLUDE\RES\MENUIMG-PRO24.BMP
C:\PROGRAM FILES (X86)\MICROSOFT VISUAL STUDIO\2019\COMMUNITY\VC\TOOLS\MSVC\14.25.28610\ATLMFC\INCLUDE\RES\RIBBONPRINTL.BMP
C:\PROGRAM FILES (X86)\MICROSOFT VISUAL STUDIO\2019\COMMUNITY\VC\TOOLS\MSVC\14.25.28610\ATLMFC\INCLUDE\RES\RIBBONPRINTS.BMP
C:\PROGRAM FILES (X86)\MICROSOFT VISUAL STUDIO\2019\COMMUNITY\VC\TOOLS\MSVC\14.25.28610\ATLMFC\INCLUDE\RES\SD2008TOP.BMP
C:\PROGRAM FILES (X86)\MICROSOFT VISUAL STUDIO\2019\COMMUNITY\VC\TOOLS\MSVC\14.25.28610\ATLMFC\INCLUDE\RES\SD2008BOTTOM.BMP
C:\PROGRAM FILES (X86)\MICROSOFT VISUAL STUDIO\2019\COMMUNITY\VC\TOOLS\MSVC\14.25.28610\ATLMFC\INCLUDE\RES\SD2008LEFT.BMP
C:\PROGRAM FILES (X86)\MICROSOFT VISUAL STUDIO\2019\COMMUNITY\VC\TOOLS\MSVC\14.25.28610\ATLMFC\INCLUDE\RES\SD2008CENTER.BMP
C:\PROGRAM FILES (X86)\MICROSOFT VISUAL STUDIO\2019\COMMUNITY\VC\TOOLS\MSVC\14.25.28610\ATLMFC\INCLUDE\RES\SD2008RIGHT.BMP
C:\PROGRAM FILES (X86)\MICROSOFT VISUAL STUDIO\2019\COMMUNITY\VC\TOOLS\MSVC\14.25.28610\ATLMFC\INCLUDE\RES\SD2008TOPH.BMP
C:\PROGRAM FILES (X86)\MICROSOFT VISUAL STUDIO\2019\COMMUNITY\VC\TOOLS\MSVC\14.25.28610\ATLMFC\INCLUDE\RES\SD2008BOTTOMH.BMP
C:\PROGRAM FILES (X86)\MICROSOFT VISUAL STUDIO\2019\COMMUNITY\VC\TOOLS\MSVC\14.25.28610\ATLMFC\INCLUDE\RES\SD2008LEFTH.BMP
C:\PROGRAM FILES (X86)\MICROSOFT VISUAL STUDIO\2019\COMMUNITY\VC\TOOLS\MSVC\14.25.28610\ATLMFC\INCLUDE\RES\SD2008CENTERH.BMP
C:\PROGRAM FILES (X86)\MICROSOFT VISUAL STUDIO\2019\COMMUNITY\VC\TOOLS\MSVC\14.25.28610\ATLMFC\INCLUDE\RES\SD2008RIGHTH.BMP
C:\PROGRAM FILES (X86)\MICROSOFT VISUAL STUDIO\2019\COMMUNITY\VC\TOOLS\MSVC\14.25.28610\ATLMFC\INCLUDE\RES\SD2008BASE.BMP
C:\PROGRAM FILES (X86)\MICROSOFT VISUAL STUDIO\2019\COMMUNITY\VC\TOOLS\MSVC\14.25.28610\ATLMFC\INCLUDE\RES\RECT-PRO.CUR
C:\PROGRAM FILES (X86)\MICROSOFT VISUAL STUDIO\2019\COMMUNITY\VC\TOOLS\MSVC\14.25.28610\ATLMFC\INCLUDE\RES\ELLIPSE-PRO.CUR
C:\PROGRAM FILES (X86)\MICROSOFT VISUAL STUDIO\2019\COMMUNITY\VC\TOOLS\MSVC\14.25.28610\ATLMFC\INCLUDE\RES\FILL-PRO.CUR
C:\PROGRAM FILES (X86)\MICROSOFT VISUAL STUDIO\2019\COMMUNITY\VC\TOOLS\MSVC\14.25.28610\ATLMFC\INCLUDE\RES\LINE-PRO.CUR
C:\PROGRAM FILES (X86)\MICROSOFT VISUAL STUDIO\2019\COMMUNITY\VC\TOOLS\MSVC\14.25.28610\ATLMFC\INCLUDE\RES\PEN-PRO.CUR
C:\PROGRAM FILES (X86)\MICROSOFT VISUAL STUDIO\2019\COMMUNITY\VC\TOOLS\MSVC\14.25.28610\ATLMFC\INCLUDE\RES\COLOR-PRO.CUR
C:\PROGRAM FILES (X86)\MICROSOFT VISUAL STUDIO\2019\COMMUNITY\VC\TOOLS\MSVC\14.25.28610\ATLMFC\INCLUDE\RES\DELETE-PRO.CUR
C:\PROGRAM FILES (X86)\MICROSOFT VISUAL STUDIO\2019\COMMUNITY\VC\TOOLS\MSVC\14.25.28610\ATLMFC\INCLUDE\RES\MOVE-PRO.CUR
C:\PROGRAM FILES (X86)\MICROSOFT VISUAL STUDIO\2019\COMMUNITY\VC\TOOLS\MSVC\14.25.28610\ATLMFC\INCLUDE\RES\COPY-PRO.CUR
C:\PROGRAM FILES (X86)\MICROSOFT VISUAL STUDIO\2019\COMMUNITY\VC\TOOLS\MSVC\14.25.28610\ATLMFC\INCLUDE\RES\HAND-PRO.CUR
C:\PROGRAM FILES (X86)\MICROSOFT VISUAL STUDIO\2019\COMMUNITY\VC\TOOLS\MSVC\14.25.28610\ATLMFC\INCLUDE\RES\MOVETAB.CUR
C:\PROGRAM FILES (X86)\MICROSOFT VISUAL STUDIO\2019\COMMUNITY\VC\TOOLS\MSVC\14.25.28610\ATLMFC\INCLUDE\RES\NOMOVETAB.CUR
C:\PROGRAM FILES (X86)\MICROSOFT VISUAL STUDIO\2019\COMMUNITY\VC\TOOLS\MSVC\14.25.28610\ATLMFC\INCLUDE\RES\TOOL-PRO.ICO
C:\PROGRAM FILES (X86)\MICROSOFT VISUAL STUDIO\2019\COMMUNITY\VC\TOOLS\MSVC\14.25.28610\ATLMFC\INCLUDE\RES\HELP-PRO.ICO
C:\PROGRAM FILES (X86)\MICROSOFT VISUAL STUDIO\2019\COMMUNITY\VC\TOOLS\MSVC\14.25.28610\ATLMFC\INCLUDE\RES\LINK.ICO
C:\PROGRAM FILES (X86)\MICROSOFT VISUAL STUDIO\2019\COMMUNITY\VC\TOOLS\MSVC\14.25.28610\ATLMFC\INCLUDE\RES\COLORS.ICO
